Feature name	Type	Description and values	% missing	Attribute name
Encounter ID	Numeric	Unique identifier of an encounter	0%	encounter_id
Patient number	Numeric	Unique identifier of a patient	0%	patient_nbr
Race	Nominal	Values: Caucasian, Asian, African American, Hispanic, and other	2%	race
Gender	Nominal	Values: male, female, and unknown/invalid	0%	gender
Age	Nominal	Grouped in 10-year intervals: 0, 10), 10, 20), …, 90, 100)	0%	age
Weight	Numeric	Weight in pounds.	97%	weight
Admission type	Nominal	Integer identifier corresponding to 9 distinct values, for example, emergency, urgent, elective, newborn, and not available	0%	admission_type_id
Discharge disposition	Nominal	Integer identifier corresponding to 29 distinct values, for example, discharged to home, expired, and not available	0%	discharge_disposition_id
Admission source	Nominal	Integer identifier corresponding to 21 distinct values, for example, physician referral, emergency room, and transfer from a hospital	0%	admission_source_id
Time in hospital	Numeric	Integer number of days between admission and discharge	0%	time_in_hospital
Payer code	Nominal	Integer identifier corresponding to 23 distinct values, for example, Blue Cross/Blue Shield, Medicare, and self-pay	52%	payer_code
Medical specialty	Nominal	Integer identifier of a specialty of the admitting physician, corresponding to 84 distinct values, for example, cardiology, internal medicine, family/general practice, and surgeon	53%	medical_specialty
Number of lab procedures	Numeric	Number of lab tests performed during the encounter	0%	num_lab_procedures
Number of procedures	Numeric	Number of procedures (other than lab tests) performed during the encounter	0%	num_procedures
Number of medications	Numeric	Number of distinct generic names administered during the encounter	0%	num_medications
Number of outpatient visits	Numeric	Number of outpatient visits of the patient in the year preceding the encounter	0%	number_outpatient
Number of emergency visits	Numeric	Number of emergency visits of the patient in the year preceding the encounter	0%	number_emergency
Number of inpatient visits	Numeric	Number of inpatient visits of the patient in the year preceding the encounter	0%	number_inpatient
Diagnosis 1	Nominal	The primary diagnosis (coded as first three digits of ICD9); 848 distinct values	0%	diag_1
Diagnosis 2	Nominal	Secondary diagnosis (coded as first three digits of ICD9); 923 distinct values	0%	diag_2
Diagnosis 3	Nominal	Additional secondary diagnosis (coded as first three digits of ICD9); 954 distinct values	1%	diag_3
Number of diagnoses	Numeric	Number of diagnoses entered to the system	0%	number_diagnoses
Glucose serum test result	Nominal	Indicates the range of the result or if the test was not taken. Values: “>200,” “>300,” “normal,” and “none” if not measured	0%	max_glu_serum
A1c test result	Nominal	Indicates the range of the result or if the test was not taken. Values: “>8” if the result was greater than 8%, “>7” if the result was greater than 7% but less than 8%, “normal” if the result was less than 7%, and “none” if not measured.	0%	A1Cresult
Change of medications	Nominal	Indicates if there was a change in diabetic medications (either dosage or generic name). Values: “change” and “no change”	0%	change
Diabetes medications	Nominal	Indicates if there was any diabetic medication prescribed. Values: “yes” and “no”	0%	diabetesMed
24 features for medications	Nominal	For the generic names: metformin, repaglinide, nateglinide, chlorpropamide, glimepiride, acetohexamide, glipizide, glyburide, tolbutamide, pioglitazone, rosiglitazone, acarbose, miglitol, troglitazone, tolazamide, examide, sitagliptin, insulin, glyburide-metformin, glipizide-metformin, glimepiride-pioglitazone, metformin-rosiglitazone, and metformin-pioglitazone, the feature indicates whether the drug was prescribed or there was a change in the dosage. Values: “up” if the dosage was increased during the encounter, “down” if the dosage was decreased, “steady” if the dosage did not change, and “no” if the drug was not prescribed	0%	
Readmitted	Nominal	Days to inpatient readmission. Values: “<30” if the patient was readmitted in less than 30 days, “>30” if the patient was readmitted in more than 30 days, and “No” for no record of readmission.	0%	readmitted
