@relation InstanceResultListener

@attribute Key_Dataset {write.to.file}
@attribute Key_Run {1,2,3,4,5,6,7,8,9,10}
@attribute Key_Fold {1,2,3,4,5,6,7,8,9,10}
@attribute Key_Scheme {weka.classifiers.meta.AttributeSelectedClassifier}
@attribute Key_Scheme_options {'-E \"weka.attributeSelection.WrapperSubsetEval -B weka.classifiers.trees.J48 -F 5 -T 0.01 -R 1 -E DEFAULT -- -C 0.25 -M 2\" -S \"weka.attributeSelection.BestFirst -D 1 -N 5\" -W weka.classifiers.trees.J48 -batch-size 20 -- -C 0.25 -M 2 -batch-size 20','-E \"weka.attributeSelection.WrapperSubsetEval -B weka.classifiers.trees.RandomForest -F 5 -T 0.01 -R 1 -E DEFAULT -- -P 100 -I 100 -num-slots 1 -K 0 -M 1.0 -V 0.001 -S 1\" -S \"weka.attributeSelection.BestFirst -D 1 -N 5\" -W weka.classifiers.trees.RandomForest -- -P 100 -I 100 -num-slots 1 -K 0 -M 1.0 -V 0.001 -S 1'}
@attribute Key_Scheme_version_ID {-1151805453487947577}
@attribute Date_time numeric
@attribute Number_of_training_instances numeric
@attribute Number_of_testing_instances numeric
@attribute Number_correct numeric
@attribute Number_incorrect numeric
@attribute Number_unclassified numeric
@attribute Percent_correct numeric
@attribute Percent_incorrect numeric
@attribute Percent_unclassified numeric
@attribute Kappa_statistic numeric
@attribute Mean_absolute_error numeric
@attribute Root_mean_squared_error numeric
@attribute Relative_absolute_error numeric
@attribute Root_relative_squared_error numeric
@attribute SF_prior_entropy numeric
@attribute SF_scheme_entropy numeric
@attribute SF_entropy_gain numeric
@attribute SF_mean_prior_entropy numeric
@attribute SF_mean_scheme_entropy numeric
@attribute SF_mean_entropy_gain numeric
@attribute KB_information numeric
@attribute KB_mean_information numeric
@attribute KB_relative_information numeric
@attribute True_positive_rate numeric
@attribute Num_true_positives numeric
@attribute False_positive_rate numeric
@attribute Num_false_positives numeric
@attribute True_negative_rate numeric
@attribute Num_true_negatives numeric
@attribute False_negative_rate numeric
@attribute Num_false_negatives numeric
@attribute IR_precision numeric
@attribute IR_recall numeric
@attribute F_measure numeric
@attribute Matthews_correlation numeric
@attribute Area_under_ROC numeric
@attribute Area_under_PRC numeric
@attribute Weighted_avg_true_positive_rate numeric
@attribute Weighted_avg_false_positive_rate numeric
@attribute Weighted_avg_true_negative_rate numeric
@attribute Weighted_avg_false_negative_rate numeric
@attribute Weighted_avg_IR_precision numeric
@attribute Weighted_avg_IR_recall numeric
@attribute Weighted_avg_F_measure numeric
@attribute Weighted_avg_matthews_correlation numeric
@attribute Weighted_avg_area_under_ROC numeric
@attribute Weighted_avg_area_under_PRC numeric
@attribute Unweighted_macro_avg_F_measure numeric
@attribute Unweighted_micro_avg_F_measure numeric
@attribute Elapsed_Time_training numeric
@attribute Elapsed_Time_testing numeric
@attribute UserCPU_Time_training numeric
@attribute UserCPU_Time_testing numeric
@attribute UserCPU_Time_millis_training numeric
@attribute UserCPU_Time_millis_testing numeric
@attribute Serialized_Model_Size numeric
@attribute Serialized_Train_Set_Size numeric
@attribute Serialized_Test_Set_Size numeric
@attribute Coverage_of_Test_Cases_By_Regions numeric
@attribute Size_of_Predicted_Regions numeric
@attribute Summary string
@attribute measureNumAttributesSelected numeric
@attribute measureSelectionTime numeric
@attribute measureTime numeric
@attribute measureTreeSize numeric
@attribute measureNumLeaves numeric
@attribute measureNumRules numeric
@attribute measureOutOfBagError numeric
@attribute measureAttributesUsed numeric
@attribute measureNumIterations numeric

@data

write.to.file,1,1,weka.classifiers.meta.AttributeSelectedClassifier,'-E \"weka.attributeSelection.WrapperSubsetEval -B weka.classifiers.trees.J48 -F 5 -T 0.01 -R 1 -E DEFAULT -- -C 0.25 -M 2\" -S \"weka.attributeSelection.BestFirst -D 1 -N 5\" -W weka.classifiers.trees.J48 -batch-size 20 -- -C 0.25 -M 2 -batch-size 20',-1151805453487947577,20191010.0957,180,20,10,10,0,50,50,0,-0.052632,0.497454,0.516021,100.484544,103.724056,19.855507,20.976708,-1.121202,0.992775,1.048835,-0.05606,-0.168248,-0.008412,-0.847364,0.222222,2,0.272727,3,0.727273,8,0.777778,7,0.4,0.222222,0.285714,-0.058026,0.474747,0.438889,0.5,0.550505,0.449495,0.5,0.473333,0.5,0.467033,-0.058026,0.474747,0.493333,0.450549,0.5,2.957,0,2.83,0,2830,0,66922,135686,67046,100,100,?,4,2954,2955,3,2,2,?,?,?
write.to.file,1,2,weka.classifiers.meta.AttributeSelectedClassifier,'-E \"weka.attributeSelection.WrapperSubsetEval -B weka.classifiers.trees.J48 -F 5 -T 0.01 -R 1 -E DEFAULT -- -C 0.25 -M 2\" -S \"weka.attributeSelection.BestFirst -D 1 -N 5\" -W weka.classifiers.trees.J48 -batch-size 20 -- -C 0.25 -M 2 -batch-size 20',-1151805453487947577,20191010.0957,180,20,6,14,0,30,70,0,-0.414141,0.578443,0.607777,116.844117,122.167622,19.855507,27.444856,-7.589349,0.992775,1.372243,-0.379467,-4.143492,-0.207175,-20.868226,0.222222,2,0.636364,7,0.363636,4,0.777778,7,0.222222,0.222222,0.222222,-0.414141,0.30303,0.382716,0.3,0.714141,0.285859,0.7,0.3,0.3,0.3,-0.414141,0.30303,0.437617,0.292929,0.3,2.095,0,2.09,0,2090,0,67644,135686,67046,100,100,?,4,2095,2095,7,4,4,?,?,?
write.to.file,1,3,weka.classifiers.meta.AttributeSelectedClassifier,'-E \"weka.attributeSelection.WrapperSubsetEval -B weka.classifiers.trees.J48 -F 5 -T 0.01 -R 1 -E DEFAULT -- -C 0.25 -M 2\" -S \"weka.attributeSelection.BestFirst -D 1 -N 5\" -W weka.classifiers.trees.J48 -batch-size 20 -- -C 0.25 -M 2 -batch-size 20',-1151805453487947577,20191010.0957,180,20,10,10,0,50,50,0,0.009901,0.492013,0.514113,99.385531,103.340624,19.855507,20.909565,-1.054058,0.992775,1.045478,-0.052703,0.078891,0.003945,0.397327,0.555556,5,0.545455,6,0.454545,5,0.444444,4,0.454545,0.555556,0.5,0.010101,0.505051,0.452525,0.5,0.489899,0.510101,0.5,0.510101,0.5,0.5,0.010101,0.505051,0.507525,0.5,0.5,1.035,0,1.03,0,1030,0,67128,135686,67046,100,100,?,2,1035,1035,5,3,3,?,?,?
write.to.file,1,4,weka.classifiers.meta.AttributeSelectedClassifier,'-E \"weka.attributeSelection.WrapperSubsetEval -B weka.classifiers.trees.J48 -F 5 -T 0.01 -R 1 -E DEFAULT -- -C 0.25 -M 2\" -S \"weka.attributeSelection.BestFirst -D 1 -N 5\" -W weka.classifiers.trees.J48 -batch-size 20 -- -C 0.25 -M 2 -batch-size 20',-1151805453487947577,20191010.0957,180,20,8,12,0,40,60,0,-0.188119,0.521034,0.532703,105.247655,107.077173,19.855507,21.989552,-2.134045,0.992775,1.099478,-0.106702,-1.414758,-0.070738,-7.12527,0.444444,4,0.636364,7,0.363636,4,0.555556,5,0.363636,0.444444,0.4,-0.191919,0.40404,0.411616,0.4,0.591919,0.408081,0.6,0.408081,0.4,0.4,-0.191919,0.40404,0.466616,0.4,0.4,3.025,0,3.01,0,3010,0,67355,135686,67046,100,100,?,5,3025,3025,5,3,3,?,?,?
write.to.file,1,5,weka.classifiers.meta.AttributeSelectedClassifier,'-E \"weka.attributeSelection.WrapperSubsetEval -B weka.classifiers.trees.J48 -F 5 -T 0.01 -R 1 -E DEFAULT -- -C 0.25 -M 2\" -S \"weka.attributeSelection.BestFirst -D 1 -N 5\" -W weka.classifiers.trees.J48 -batch-size 20 -- -C 0.25 -M 2 -batch-size 20',-1151805453487947577,20191010.0957,180,20,8,12,0,40,60,0,-0.100917,0.523441,0.531167,105.733855,106.768534,19.855507,21.936571,-2.081064,0.992775,1.096829,-0.104053,-1.500662,-0.075033,-7.557916,0.888889,8,1,11,0,0,0.111111,1,0.421053,0.888889,0.571429,-0.253629,0.444444,0.424269,0.4,0.511111,0.488889,0.6,0.189474,0.4,0.257143,-0.253629,0.444444,0.493421,0.285714,0.4,2.508,0,2.5,0,2500,0,69809,135686,67046,100,100,?,5,2507,2508,19,14,14,?,?,?
write.to.file,1,6,weka.classifiers.meta.AttributeSelectedClassifier,'-E \"weka.attributeSelection.WrapperSubsetEval -B weka.classifiers.trees.J48 -F 5 -T 0.01 -R 1 -E DEFAULT -- -C 0.25 -M 2\" -S \"weka.attributeSelection.BestFirst -D 1 -N 5\" -W weka.classifiers.trees.J48 -batch-size 20 -- -C 0.25 -M 2 -batch-size 20',-1151805453487947577,20191010.0957,180,20,8,12,0,40,60,0,-0.237113,0.558463,0.615726,112.808327,123.765474,19.855507,2170.27086,-2150.415354,0.992775,108.513543,-107.520768,-2.653768,-0.132688,-13.365401,0.222222,2,0.454545,5,0.545455,6,0.777778,7,0.285714,0.222222,0.25,-0.24232,0.383838,0.405531,0.4,0.632323,0.367677,0.6,0.382418,0.4,0.3875,-0.24232,0.383838,0.465731,0.375,0.4,3.443,0.001,3.43,0,3430,0,74044,135686,67046,90,95,?,6,3443,3443,43,35,35,?,?,?
write.to.file,1,7,weka.classifiers.meta.AttributeSelectedClassifier,'-E \"weka.attributeSelection.WrapperSubsetEval -B weka.classifiers.trees.J48 -F 5 -T 0.01 -R 1 -E DEFAULT -- -C 0.25 -M 2\" -S \"weka.attributeSelection.BestFirst -D 1 -N 5\" -W weka.classifiers.trees.J48 -batch-size 20 -- -C 0.25 -M 2 -batch-size 20',-1151805453487947577,20191010.0958,180,20,11,9,0,55,45,0,0.081633,0.482506,0.638894,97.465162,128.422357,19.855507,6453.04029,-6433.184783,0.992775,322.652014,-321.659239,0.694025,0.034701,3.495379,0.444444,4,0.363636,4,0.636364,7,0.555556,5,0.5,0.444444,0.470588,0.082061,0.505051,0.439202,0.55,0.469192,0.530808,0.45,0.545833,0.55,0.546547,0.082061,0.505051,0.526807,0.539642,0.55,10.415,0,10.38,0,10380,0,79941,135686,67046,70,75,?,13,10414,10415,61,42,42,?,?,?
write.to.file,1,8,weka.classifiers.meta.AttributeSelectedClassifier,'-E \"weka.attributeSelection.WrapperSubsetEval -B weka.classifiers.trees.J48 -F 5 -T 0.01 -R 1 -E DEFAULT -- -C 0.25 -M 2\" -S \"weka.attributeSelection.BestFirst -D 1 -N 5\" -W weka.classifiers.trees.J48 -batch-size 20 -- -C 0.25 -M 2 -batch-size 20',-1151805453487947577,20191010.0958,180,20,10,10,0,50,50,0,-0.098901,0.522187,0.536371,105.480716,107.81447,19.855507,1093.011575,-1073.156069,0.992775,54.650579,-53.657803,-1.132499,-0.056625,-5.703702,0,0,0.090909,1,0.909091,10,1,9,0,0,0,-0.207514,0.454545,0.45,0.5,0.590909,0.409091,0.5,0.289474,0.5,0.366667,-0.207514,0.454545,0.493158,0.333333,0.5,1.097,0,1.1,0,1100,0,68275,135686,67046,95,97.5,?,3,1096,1097,11,7,7,?,?,?
write.to.file,1,9,weka.classifiers.meta.AttributeSelectedClassifier,'-E \"weka.attributeSelection.WrapperSubsetEval -B weka.classifiers.trees.J48 -F 5 -T 0.01 -R 1 -E DEFAULT -- -C 0.25 -M 2\" -S \"weka.attributeSelection.BestFirst -D 1 -N 5\" -W weka.classifiers.trees.J48 -batch-size 20 -- -C 0.25 -M 2 -batch-size 20',-1151805453487947577,20191010.0958,180,20,8,12,0,40,60,0,-0.212121,0.582727,0.706867,117.709489,142.085553,19.855507,5390.269865,-5370.414358,0.992775,269.513493,-268.520718,-3.750288,-0.187514,-18.8879,0.333333,3,0.545455,6,0.454545,5,0.666667,6,0.333333,0.333333,0.333333,-0.212121,0.358586,0.387037,0.4,0.612121,0.387879,0.6,0.4,0.4,0.4,-0.212121,0.358586,0.436526,0.393939,0.4,4.078,0.001,4.06,0,4060,0,76686,135686,67046,75,80,?,8,4078,4078,56,36,36,?,?,?
write.to.file,1,10,weka.classifiers.meta.AttributeSelectedClassifier,'-E \"weka.attributeSelection.WrapperSubsetEval -B weka.classifiers.trees.J48 -F 5 -T 0.01 -R 1 -E DEFAULT -- -C 0.25 -M 2\" -S \"weka.attributeSelection.BestFirst -D 1 -N 5\" -W weka.classifiers.trees.J48 -batch-size 20 -- -C 0.25 -M 2 -batch-size 20',-1151805453487947577,20191010.0958,180,20,9,11,0,45,55,0,-0.1,0.507576,0.520906,102.529176,104.705966,19.855507,21.263473,-1.407966,0.992775,1.063174,-0.070398,-0.707552,-0.035378,-3.563505,0.444444,4,0.545455,6,0.454545,5,0.555556,5,0.4,0.444444,0.421053,-0.100504,0.459596,0.438889,0.45,0.55101,0.44899,0.55,0.455,0.45,0.451378,-0.100504,0.459596,0.488889,0.448622,0.45,1.225,0,1.22,0,1220,0,67549,135686,67046,100,100,?,3,1224,1225,7,5,5,?,?,?
write.to.file,2,1,weka.classifiers.meta.AttributeSelectedClassifier,'-E \"weka.attributeSelection.WrapperSubsetEval -B weka.classifiers.trees.J48 -F 5 -T 0.01 -R 1 -E DEFAULT -- -C 0.25 -M 2\" -S \"weka.attributeSelection.BestFirst -D 1 -N 5\" -W weka.classifiers.trees.J48 -batch-size 20 -- -C 0.25 -M 2 -batch-size 20',-1151805453487947577,20191010.0958,180,20,8,12,0,40,60,0,-0.212121,0.528178,0.544218,106.690853,109.391786,19.855507,22.766731,-2.911225,0.992775,1.138337,-0.145561,-1.740792,-0.08704,-8.767301,0.333333,3,0.545455,6,0.454545,5,0.666667,6,0.333333,0.333333,0.333333,-0.212121,0.39899,0.408025,0.4,0.612121,0.387879,0.6,0.4,0.4,0.4,-0.212121,0.39899,0.460403,0.393939,0.4,2.378,0,2.37,0,2370,0,68004,135686,67046,100,100,?,4,2377,2378,9,5,5,?,?,?
write.to.file,2,2,weka.classifiers.meta.AttributeSelectedClassifier,'-E \"weka.attributeSelection.WrapperSubsetEval -B weka.classifiers.trees.J48 -F 5 -T 0.01 -R 1 -E DEFAULT -- -C 0.25 -M 2\" -S \"weka.attributeSelection.BestFirst -D 1 -N 5\" -W weka.classifiers.trees.J48 -batch-size 20 -- -C 0.25 -M 2 -batch-size 20',-1151805453487947577,20191010.0958,180,20,10,10,0,50,50,0,-0.052632,0.50558,0.547023,102.126133,109.955713,19.855507,1093.475771,-1073.620264,0.992775,54.673789,-53.681013,-0.580578,-0.029029,-2.924017,0.222222,2,0.272727,3,0.727273,8,0.777778,7,0.4,0.222222,0.285714,-0.058026,0.393939,0.531481,0.5,0.550505,0.449495,0.5,0.473333,0.5,0.467033,-0.058026,0.393939,0.5425,0.450549,0.5,1.823,0,1.82,0,1820,0,67931,135686,67046,95,95,?,3,1823,1823,9,5,5,?,?,?
write.to.file,2,3,weka.classifiers.meta.AttributeSelectedClassifier,'-E \"weka.attributeSelection.WrapperSubsetEval -B weka.classifiers.trees.J48 -F 5 -T 0.01 -R 1 -E DEFAULT -- -C 0.25 -M 2\" -S \"weka.attributeSelection.BestFirst -D 1 -N 5\" -W weka.classifiers.trees.J48 -batch-size 20 -- -C 0.25 -M 2 -batch-size 20',-1151805453487947577,20191010.0958,180,20,10,10,0,50,50,0,-0.052632,0.52342,0.593541,105.729755,119.30625,19.855507,1098.05614,-1078.200633,0.992775,54.902807,-53.910032,-1.142284,-0.057114,-5.752984,0.222222,2,0.272727,3,0.727273,8,0.777778,7,0.4,0.222222,0.285714,-0.058026,0.409091,0.438287,0.5,0.550505,0.449495,0.5,0.473333,0.5,0.467033,-0.058026,0.409091,0.471545,0.450549,0.5,2.354,0,2.35,0,2350,0,70096,135686,67046,95,97.5,?,4,2354,2354,21,15,15,?,?,?
write.to.file,2,4,weka.classifiers.meta.AttributeSelectedClassifier,'-E \"weka.attributeSelection.WrapperSubsetEval -B weka.classifiers.trees.J48 -F 5 -T 0.01 -R 1 -E DEFAULT -- -C 0.25 -M 2\" -S \"weka.attributeSelection.BestFirst -D 1 -N 5\" -W weka.classifiers.trees.J48 -batch-size 20 -- -C 0.25 -M 2 -batch-size 20',-1151805453487947577,20191010.0958,180,20,8,12,0,40,60,0,-0.142857,0.573155,0.63254,115.776128,127.145157,19.855507,3241.223751,-3221.368244,0.992775,162.061188,-161.068412,-3.398626,-0.169931,-17.116795,0.666667,6,0.818182,9,0.181818,2,0.333333,3,0.4,0.666667,0.5,-0.174078,0.358586,0.393771,0.4,0.551515,0.448485,0.6,0.4,0.4,0.3625,-0.174078,0.358586,0.435589,0.375,0.4,2.36,0,2.35,0,2350,0,70630,135686,67046,85,90,?,4,2360,2360,24,17,17,?,?,?
write.to.file,2,5,weka.classifiers.meta.AttributeSelectedClassifier,'-E \"weka.attributeSelection.WrapperSubsetEval -B weka.classifiers.trees.J48 -F 5 -T 0.01 -R 1 -E DEFAULT -- -C 0.25 -M 2\" -S \"weka.attributeSelection.BestFirst -D 1 -N 5\" -W weka.classifiers.trees.J48 -batch-size 20 -- -C 0.25 -M 2 -batch-size 20',-1151805453487947577,20191010.0958,180,20,6,14,0,30,70,0,-0.414141,0.63048,0.715753,127.35552,143.871779,19.855507,4320.01121,-4300.155704,0.992775,216.000561,-215.007785,-5.959261,-0.297963,-30.013142,0.222222,2,0.636364,7,0.363636,4,0.777778,7,0.222222,0.222222,0.222222,-0.414141,0.287879,0.378876,0.3,0.714141,0.285859,0.7,0.3,0.3,0.3,-0.414141,0.287879,0.420815,0.292929,0.3,3.159,0,3.15,0,3150,0,74988,135686,67046,80,85,?,6,3159,3159,48,36,36,?,?,?
write.to.file,2,6,weka.classifiers.meta.AttributeSelectedClassifier,'-E \"weka.attributeSelection.WrapperSubsetEval -B weka.classifiers.trees.J48 -F 5 -T 0.01 -R 1 -E DEFAULT -- -C 0.25 -M 2\" -S \"weka.attributeSelection.BestFirst -D 1 -N 5\" -W weka.classifiers.trees.J48 -batch-size 20 -- -C 0.25 -M 2 -batch-size 20',-1151805453487947577,20191010.0958,180,20,11,9,0,55,45,0,0.134615,0.540854,0.585918,109.251251,117.773834,19.855507,1096.875325,-1077.019818,0.992775,54.843766,-53.850991,-1.873334,-0.093667,-9.434832,0.777778,7,0.636364,7,0.363636,4,0.222222,2,0.5,0.777778,0.608696,0.153522,0.429293,0.446189,0.55,0.408586,0.591414,0.45,0.591667,0.55,0.532737,0.153522,0.429293,0.527458,0.539642,0.55,1.983,0,1.97,0,1970,0,70464,135686,67046,95,97.5,?,4,1983,1983,23,16,16,?,?,?
write.to.file,2,7,weka.classifiers.meta.AttributeSelectedClassifier,'-E \"weka.attributeSelection.WrapperSubsetEval -B weka.classifiers.trees.J48 -F 5 -T 0.01 -R 1 -E DEFAULT -- -C 0.25 -M 2\" -S \"weka.attributeSelection.BestFirst -D 1 -N 5\" -W weka.classifiers.trees.J48 -batch-size 20 -- -C 0.25 -M 2 -batch-size 20',-1151805453487947577,20191010.0958,180,20,14,6,0,70,30,0,0.393939,0.431224,0.494235,87.106191,99.344886,19.855507,20.933858,-1.078352,0.992775,1.046693,-0.053918,3.183001,0.15915,16.030822,0.666667,6,0.272727,3,0.727273,8,0.333333,3,0.666667,0.666667,0.666667,0.393939,0.616162,0.580065,0.7,0.306061,0.693939,0.3,0.7,0.7,0.7,0.393939,0.616162,0.621263,0.69697,0.7,4.753,0,4.74,0,4740,0,72169,135686,67046,100,100,?,7,4752,4753,31,19,19,?,?,?
write.to.file,2,8,weka.classifiers.meta.AttributeSelectedClassifier,'-E \"weka.attributeSelection.WrapperSubsetEval -B weka.classifiers.trees.J48 -F 5 -T 0.01 -R 1 -E DEFAULT -- -C 0.25 -M 2\" -S \"weka.attributeSelection.BestFirst -D 1 -N 5\" -W weka.classifiers.trees.J48 -batch-size 20 -- -C 0.25 -M 2 -batch-size 20',-1151805453487947577,20191010.0958,180,20,12,8,0,60,40,0,0.157895,0.465068,0.538219,93.942643,108.18597,19.855507,23.405191,-3.549684,0.992775,1.17026,-0.177484,1.39114,0.069557,7.006319,0.333333,3,0.181818,2,0.818182,9,0.666667,6,0.6,0.333333,0.428571,0.174078,0.535354,0.538576,0.6,0.448485,0.551515,0.4,0.6,0.6,0.573626,0.174078,0.535354,0.579085,0.56044,0.6,3.601,0,3.59,0.01,3590,10,73092,135686,67046,100,97.5,?,6,3601,3601,37,26,26,?,?,?
write.to.file,2,9,weka.classifiers.meta.AttributeSelectedClassifier,'-E \"weka.attributeSelection.WrapperSubsetEval -B weka.classifiers.trees.J48 -F 5 -T 0.01 -R 1 -E DEFAULT -- -C 0.25 -M 2\" -S \"weka.attributeSelection.BestFirst -D 1 -N 5\" -W weka.classifiers.trees.J48 -batch-size 20 -- -C 0.25 -M 2 -batch-size 20',-1151805453487947577,20191010.0958,180,20,10,10,0,50,50,0,-0.052632,0.519763,0.565459,104.990982,113.661458,19.855507,25.180644,-5.325137,0.992775,1.259032,-0.266257,-1.116987,-0.055849,-5.625575,0.222222,2,0.272727,3,0.727273,8,0.777778,7,0.4,0.222222,0.285714,-0.058026,0.434343,0.419724,0.5,0.550505,0.449495,0.5,0.473333,0.5,0.467033,-0.058026,0.434343,0.497495,0.450549,0.5,2.284,0,2.28,0,2280,0,73627,135686,67046,100,97.5,?,5,2283,2284,41,33,33,?,?,?
write.to.file,2,10,weka.classifiers.meta.AttributeSelectedClassifier,'-E \"weka.attributeSelection.WrapperSubsetEval -B weka.classifiers.trees.J48 -F 5 -T 0.01 -R 1 -E DEFAULT -- -C 0.25 -M 2\" -S \"weka.attributeSelection.BestFirst -D 1 -N 5\" -W weka.classifiers.trees.J48 -batch-size 20 -- -C 0.25 -M 2 -batch-size 20',-1151805453487947577,20191010.0958,180,20,9,11,0,45,55,0,-0.170213,0.505802,0.538459,102.170834,108.2343,19.855507,22.497551,-2.642044,0.992775,1.124878,-0.132102,-0.716764,-0.035838,-3.609902,0.111111,1,0.272727,3,0.727273,8,0.888889,8,0.25,0.111111,0.153846,-0.201008,0.459596,0.446422,0.45,0.611616,0.388384,0.55,0.3875,0.45,0.395157,-0.201008,0.459596,0.514355,0.373219,0.45,2.037,0,2.03,0,2030,0,69056,135686,67046,100,100,?,4,2037,2037,15,10,10,?,?,?
write.to.file,3,1,weka.classifiers.meta.AttributeSelectedClassifier,'-E \"weka.attributeSelection.WrapperSubsetEval -B weka.classifiers.trees.J48 -F 5 -T 0.01 -R 1 -E DEFAULT -- -C 0.25 -M 2\" -S \"weka.attributeSelection.BestFirst -D 1 -N 5\" -W weka.classifiers.trees.J48 -batch-size 20 -- -C 0.25 -M 2 -batch-size 20',-1151805453487947577,20191010.0958,180,20,7,13,0,35,65,0,-0.226415,0.539286,0.553053,108.934517,111.167718,19.855507,23.483091,-3.627585,0.992775,1.174155,-0.181379,-2.269353,-0.113468,-11.429337,0.666667,6,0.909091,10,0.090909,1,0.333333,3,0.375,0.666667,0.48,-0.301511,0.378788,0.4,0.35,0.592424,0.407576,0.65,0.30625,0.35,0.289333,-0.301511,0.378788,0.4675,0.306667,0.35,1.382,0,1.38,0,1380,0,68293,135686,67046,100,100,?,3,1382,1382,11,6,6,?,?,?
write.to.file,3,2,weka.classifiers.meta.AttributeSelectedClassifier,'-E \"weka.attributeSelection.WrapperSubsetEval -B weka.classifiers.trees.J48 -F 5 -T 0.01 -R 1 -E DEFAULT -- -C 0.25 -M 2\" -S \"weka.attributeSelection.BestFirst -D 1 -N 5\" -W weka.classifiers.trees.J48 -batch-size 20 -- -C 0.25 -M 2 -batch-size 20',-1151805453487947577,20191010.0958,180,20,7,13,0,35,65,0,-0.27451,0.571731,0.613478,115.488421,123.313571,19.855507,1099.155859,-1079.300352,0.992775,54.957793,-53.965018,-3.449679,-0.172484,-17.373916,0.444444,4,0.727273,8,0.272727,3,0.555556,5,0.333333,0.444444,0.380952,-0.287213,0.328283,0.398148,0.35,0.632828,0.367172,0.65,0.35625,0.35,0.345113,-0.287213,0.328283,0.439127,0.348371,0.35,1.358,0,1.36,0,1360,0,68641,135686,67046,95,97.5,?,3,1358,1358,13,8,8,?,?,?
write.to.file,3,3,weka.classifiers.meta.AttributeSelectedClassifier,'-E \"weka.attributeSelection.WrapperSubsetEval -B weka.classifiers.trees.J48 -F 5 -T 0.01 -R 1 -E DEFAULT -- -C 0.25 -M 2\" -S \"weka.attributeSelection.BestFirst -D 1 -N 5\" -W weka.classifiers.trees.J48 -batch-size 20 -- -C 0.25 -M 2 -batch-size 20',-1151805453487947577,20191010.0958,180,20,14,6,0,70,30,0,0.381443,0.395683,0.446578,79.927079,89.765421,19.855507,16.929854,2.925653,0.992775,0.846493,0.146283,4.510814,0.225541,22.718204,0.555556,5,0.181818,2,0.818182,9,0.444444,4,0.714286,0.555556,0.625,0.389819,0.767677,0.702549,0.7,0.326263,0.673737,0.3,0.702198,0.7,0.69375,0.389819,0.767677,0.763744,0.6875,0.7,1.683,0,1.68,0,1680,0,71630,135686,67046,100,100,?,4,1682,1683,30,24,24,?,?,?
write.to.file,3,4,weka.classifiers.meta.AttributeSelectedClassifier,'-E \"weka.attributeSelection.WrapperSubsetEval -B weka.classifiers.trees.J48 -F 5 -T 0.01 -R 1 -E DEFAULT -- -C 0.25 -M 2\" -S \"weka.attributeSelection.BestFirst -D 1 -N 5\" -W weka.classifiers.trees.J48 -batch-size 20 -- -C 0.25 -M 2 -batch-size 20',-1151805453487947577,20191010.0958,180,20,11,9,0,55,45,0,0.081633,0.476032,0.492607,96.157356,99.017617,19.855507,19.429584,0.425922,0.992775,0.971479,0.021296,0.788418,0.039421,3.97078,0.444444,4,0.363636,4,0.636364,7,0.555556,5,0.5,0.444444,0.470588,0.082061,0.565657,0.48538,0.55,0.469192,0.530808,0.45,0.545833,0.55,0.546547,0.082061,0.565657,0.553421,0.539642,0.55,2.367,0,2.36,0,2360,0,67369,135686,67046,100,100,?,5,2366,2367,5,3,3,?,?,?
write.to.file,3,5,weka.classifiers.meta.AttributeSelectedClassifier,'-E \"weka.attributeSelection.WrapperSubsetEval -B weka.classifiers.trees.J48 -F 5 -T 0.01 -R 1 -E DEFAULT -- -C 0.25 -M 2\" -S \"weka.attributeSelection.BestFirst -D 1 -N 5\" -W weka.classifiers.trees.J48 -batch-size 20 -- -C 0.25 -M 2 -batch-size 20',-1151805453487947577,20191010.0958,180,20,8,12,0,40,60,0,-0.212121,0.487767,0.521083,98.527845,104.741588,19.855507,20.929516,-1.074009,0.992775,1.046476,-0.0537,-0.126058,-0.006303,-0.634877,0.333333,3,0.545455,6,0.454545,5,0.666667,6,0.333333,0.333333,0.333333,-0.212121,0.454545,0.500975,0.4,0.612121,0.387879,0.6,0.4,0.4,0.4,-0.212121,0.454545,0.540032,0.393939,0.4,1.483,0,1.48,0,1480,0,67565,135686,67046,100,97.5,?,3,1482,1483,7,4,4,?,?,?
write.to.file,3,6,weka.classifiers.meta.AttributeSelectedClassifier,'-E \"weka.attributeSelection.WrapperSubsetEval -B weka.classifiers.trees.J48 -F 5 -T 0.01 -R 1 -E DEFAULT -- -C 0.25 -M 2\" -S \"weka.attributeSelection.BestFirst -D 1 -N 5\" -W weka.classifiers.trees.J48 -batch-size 20 -- -C 0.25 -M 2 -batch-size 20',-1151805453487947577,20191010.0958,180,20,10,10,0,50,50,0,-0.075269,0.486286,0.546877,98.228629,109.9263,19.855507,23.497751,-3.642244,0.992775,1.174888,-0.182112,0.259363,0.012968,1.306254,0.111111,1,0.181818,2,0.818182,9,0.888889,8,0.333333,0.111111,0.166667,-0.098513,0.515152,0.558512,0.5,0.570707,0.429293,0.5,0.441176,0.5,0.428571,-0.098513,0.515152,0.562621,0.404762,0.5,2.357,0,2.35,0.01,2350,10,70903,135686,67046,100,100,?,5,2357,2357,25,17,17,?,?,?
write.to.file,3,7,weka.classifiers.meta.AttributeSelectedClassifier,'-E \"weka.attributeSelection.WrapperSubsetEval -B weka.classifiers.trees.J48 -F 5 -T 0.01 -R 1 -E DEFAULT -- -C 0.25 -M 2\" -S \"weka.attributeSelection.BestFirst -D 1 -N 5\" -W weka.classifiers.trees.J48 -batch-size 20 -- -C 0.25 -M 2 -batch-size 20',-1151805453487947577,20191010.0958,180,20,10,10,0,50,50,0,-0.075269,0.538605,0.567676,108.796944,114.107035,19.855507,24.933881,-5.078374,0.992775,1.246694,-0.253919,-1.950925,-0.097546,-9.825614,0.111111,1,0.181818,2,0.818182,9,0.888889,8,0.333333,0.111111,0.166667,-0.098513,0.30303,0.369444,0.5,0.570707,0.429293,0.5,0.441176,0.5,0.428571,-0.098513,0.30303,0.424919,0.404762,0.5,6.871,0,6.84,0,6840,0,73439,135686,67046,100,100,?,9,6870,6871,37,21,21,?,?,?
write.to.file,3,8,weka.classifiers.meta.AttributeSelectedClassifier,'-E \"weka.attributeSelection.WrapperSubsetEval -B weka.classifiers.trees.J48 -F 5 -T 0.01 -R 1 -E DEFAULT -- -C 0.25 -M 2\" -S \"weka.attributeSelection.BestFirst -D 1 -N 5\" -W weka.classifiers.trees.J48 -batch-size 20 -- -C 0.25 -M 2 -batch-size 20',-1151805453487947577,20191010.0959,180,20,12,8,0,60,40,0,0.238095,0.456518,0.563467,92.215552,113.261,19.855507,2165.87914,-2146.023633,0.992775,108.293957,-107.301182,1.830506,0.091525,9.219133,0.888889,8,0.636364,7,0.363636,4,0.111111,1,0.533333,0.888889,0.666667,0.290129,0.570707,0.542063,0.6,0.347475,0.652525,0.4,0.68,0.6,0.575,0.290129,0.570707,0.576266,0.583333,0.6,6.807,0,6.79,0,6790,0,74764,135686,67046,90,92.5,?,8,6806,6807,45,27,27,?,?,?
write.to.file,3,9,weka.classifiers.meta.AttributeSelectedClassifier,'-E \"weka.attributeSelection.WrapperSubsetEval -B weka.classifiers.trees.J48 -F 5 -T 0.01 -R 1 -E DEFAULT -- -C 0.25 -M 2\" -S \"weka.attributeSelection.BestFirst -D 1 -N 5\" -W weka.classifiers.trees.J48 -batch-size 20 -- -C 0.25 -M 2 -batch-size 20',-1151805453487947577,20191010.0959,180,20,9,11,0,45,55,0,-0.1,0.505129,0.531361,102.034853,106.807473,19.855507,22.032682,-2.177176,0.992775,1.101634,-0.108859,-0.591047,-0.029552,-2.976741,0.444444,4,0.545455,6,0.454545,5,0.555556,5,0.4,0.444444,0.421053,-0.100504,0.5,0.438889,0.45,0.55101,0.44899,0.55,0.455,0.45,0.451378,-0.100504,0.5,0.51875,0.448622,0.45,1.038,0,1.04,0,1040,0,67128,135686,67046,100,100,?,2,1038,1038,5,3,3,?,?,?
write.to.file,3,10,weka.classifiers.meta.AttributeSelectedClassifier,'-E \"weka.attributeSelection.WrapperSubsetEval -B weka.classifiers.trees.J48 -F 5 -T 0.01 -R 1 -E DEFAULT -- -C 0.25 -M 2\" -S \"weka.attributeSelection.BestFirst -D 1 -N 5\" -W weka.classifiers.trees.J48 -batch-size 20 -- -C 0.25 -M 2 -batch-size 20',-1151805453487947577,20191010.0959,180,20,9,11,0,45,55,0,-0.195652,0.496583,0.512997,100.308731,103.116169,19.855507,20.630635,-0.775128,0.992775,1.031532,-0.038756,-0.316025,-0.015801,-1.591625,0,0,0.181818,2,0.818182,9,1,9,0,0,0,-0.301511,0.454545,0.473684,0.45,0.631818,0.368182,0.55,0.275,0.45,0.341379,-0.301511,0.454545,0.518158,0.310345,0.45,0.915,0,0.91,0,910,0,67053,135686,67046,100,100,?,1,915,915,5,3,3,?,?,?
write.to.file,4,1,weka.classifiers.meta.AttributeSelectedClassifier,'-E \"weka.attributeSelection.WrapperSubsetEval -B weka.classifiers.trees.J48 -F 5 -T 0.01 -R 1 -E DEFAULT -- -C 0.25 -M 2\" -S \"weka.attributeSelection.BestFirst -D 1 -N 5\" -W weka.classifiers.trees.J48 -batch-size 20 -- -C 0.25 -M 2 -batch-size 20',-1151805453487947577,20191010.0959,180,20,7,13,0,35,65,0,-0.354167,0.529005,0.541162,106.857854,108.777579,19.855507,22.525022,-2.669515,0.992775,1.126251,-0.133476,-1.852196,-0.09261,-9.328376,0.111111,1,0.454545,5,0.545455,6,0.888889,8,0.166667,0.111111,0.133333,-0.372839,0.328283,0.418519,0.35,0.693434,0.306566,0.65,0.310714,0.35,0.324,-0.372839,0.328283,0.454405,0.306667,0.35,1.312,0,1.31,0,1310,0,66768,135686,67046,100,100,?,2,1312,1312,3,2,2,?,?,?
write.to.file,4,2,weka.classifiers.meta.AttributeSelectedClassifier,'-E \"weka.attributeSelection.WrapperSubsetEval -B weka.classifiers.trees.J48 -F 5 -T 0.01 -R 1 -E DEFAULT -- -C 0.25 -M 2\" -S \"weka.attributeSelection.BestFirst -D 1 -N 5\" -W weka.classifiers.trees.J48 -batch-size 20 -- -C 0.25 -M 2 -batch-size 20',-1151805453487947577,20191010.0959,180,20,9,11,0,45,55,0,-0.122449,0.512333,0.565257,103.490196,113.620911,19.855507,1094.713779,-1074.858272,0.992775,54.735689,-53.742914,-0.989782,-0.049489,-4.984922,0.333333,3,0.454545,5,0.545455,6,0.666667,6,0.375,0.333333,0.352941,-0.123091,0.429293,0.475527,0.45,0.571212,0.428788,0.55,0.44375,0.45,0.44578,-0.123091,0.429293,0.504045,0.43734,0.45,3.267,0.001,3.25,0,3250,0,72048,135686,67046,95,95,?,6,3267,3267,31,21,21,?,?,?
write.to.file,4,3,weka.classifiers.meta.AttributeSelectedClassifier,'-E \"weka.attributeSelection.WrapperSubsetEval -B weka.classifiers.trees.J48 -F 5 -T 0.01 -R 1 -E DEFAULT -- -C 0.25 -M 2\" -S \"weka.attributeSelection.BestFirst -D 1 -N 5\" -W weka.classifiers.trees.J48 -batch-size 20 -- -C 0.25 -M 2 -batch-size 20',-1151805453487947577,20191010.0959,180,20,10,10,0,50,50,0,0.009901,0.505,0.540197,102.008879,108.583535,19.855507,22.672224,-2.816717,0.992775,1.133611,-0.140836,-0.490922,-0.024546,-2.472472,0.555556,5,0.545455,6,0.454545,5,0.444444,4,0.454545,0.555556,0.5,0.010101,0.454545,0.441089,0.5,0.489899,0.510101,0.5,0.510101,0.5,0.5,0.010101,0.454545,0.49067,0.5,0.5,1.801,0,1.8,0,1800,0,68688,135686,67046,100,100,?,4,1801,1801,13,9,9,?,?,?
write.to.file,4,4,weka.classifiers.meta.AttributeSelectedClassifier,'-E \"weka.attributeSelection.WrapperSubsetEval -B weka.classifiers.trees.J48 -F 5 -T 0.01 -R 1 -E DEFAULT -- -C 0.25 -M 2\" -S \"weka.attributeSelection.BestFirst -D 1 -N 5\" -W weka.classifiers.trees.J48 -batch-size 20 -- -C 0.25 -M 2 -batch-size 20',-1151805453487947577,20191010.0959,180,20,11,9,0,55,45,0,0,0.495,0.497494,99.988901,99.999939,19.855507,19.855489,0.000018,0.992775,0.992774,0.000001,0.002884,0.000144,0.014525,0,0,0,0,1,11,1,9,?,0,?,?,0.5,0.45,0.55,0.55,0.45,0.45,?,0.55,?,?,0.5,0.505,?,0.55,1.188,0,1.18,0,1180,0,66238,135686,67046,100,100,?,3,1187,1187,1,1,1,?,?,?
write.to.file,4,5,weka.classifiers.meta.AttributeSelectedClassifier,'-E \"weka.attributeSelection.WrapperSubsetEval -B weka.classifiers.trees.J48 -F 5 -T 0.01 -R 1 -E DEFAULT -- -C 0.25 -M 2\" -S \"weka.attributeSelection.BestFirst -D 1 -N 5\" -W weka.classifiers.trees.J48 -batch-size 20 -- -C 0.25 -M 2 -batch-size 20',-1151805453487947577,20191010.0959,180,20,9,11,0,45,55,0,-0.170213,0.516667,0.527491,104.36552,106.029548,19.855507,21.692835,-1.837329,0.992775,1.084642,-0.091866,-1.13056,-0.056528,-5.693938,0.111111,1,0.272727,3,0.727273,8,0.888889,8,0.25,0.111111,0.153846,-0.201008,0.419192,0.427778,0.45,0.611616,0.388384,0.55,0.3875,0.45,0.395157,-0.201008,0.419192,0.475,0.373219,0.45,1.782,0,1.77,0,1770,0,67915,135686,67046,100,100,?,3,1782,1782,9,6,6,?,?,?
write.to.file,4,6,weka.classifiers.meta.AttributeSelectedClassifier,'-E \"weka.attributeSelection.WrapperSubsetEval -B weka.classifiers.trees.J48 -F 5 -T 0.01 -R 1 -E DEFAULT -- -C 0.25 -M 2\" -S \"weka.attributeSelection.BestFirst -D 1 -N 5\" -W weka.classifiers.trees.J48 -batch-size 20 -- -C 0.25 -M 2 -batch-size 20',-1151805453487947577,20191010.0959,180,20,10,10,0,50,50,0,-0.075269,0.495732,0.556408,100.136829,111.842063,19.855507,24.286937,-4.431431,0.992775,1.214347,-0.221572,-0.197299,-0.009865,-0.993675,0.111111,1,0.181818,2,0.818182,9,0.888889,8,0.333333,0.111111,0.166667,-0.098513,0.489899,0.433753,0.5,0.570707,0.429293,0.5,0.441176,0.5,0.428571,-0.098513,0.489899,0.529887,0.404762,0.5,1.921,0,1.92,0,1920,0,72506,135686,67046,100,97.5,?,4,1921,1921,35,28,28,?,?,?
write.to.file,4,7,weka.classifiers.meta.AttributeSelectedClassifier,'-E \"weka.attributeSelection.WrapperSubsetEval -B weka.classifiers.trees.J48 -F 5 -T 0.01 -R 1 -E DEFAULT -- -C 0.25 -M 2\" -S \"weka.attributeSelection.BestFirst -D 1 -N 5\" -W weka.classifiers.trees.J48 -batch-size 20 -- -C 0.25 -M 2 -batch-size 20',-1151805453487947577,20191010.0959,180,20,10,10,0,50,50,0,-0.010101,0.496552,0.533601,100.302346,107.257704,19.855507,22.543538,-2.688031,0.992775,1.127177,-0.134402,-0.116254,-0.005813,-0.585502,0.444444,4,0.454545,5,0.545455,6,0.555556,5,0.444444,0.444444,0.444444,-0.010101,0.434343,0.437037,0.5,0.510101,0.489899,0.5,0.5,0.5,0.5,-0.010101,0.434343,0.484141,0.494949,0.5,2.261,0,2.26,0,2260,0,67816,135686,67046,100,100,?,4,2261,2261,8,5,5,?,?,?
write.to.file,4,8,weka.classifiers.meta.AttributeSelectedClassifier,'-E \"weka.attributeSelection.WrapperSubsetEval -B weka.classifiers.trees.J48 -F 5 -T 0.01 -R 1 -E DEFAULT -- -C 0.25 -M 2\" -S \"weka.attributeSelection.BestFirst -D 1 -N 5\" -W weka.classifiers.trees.J48 -batch-size 20 -- -C 0.25 -M 2 -batch-size 20',-1151805453487947577,20191010.0959,180,20,9,11,0,45,55,0,-0.078431,0.509088,0.548583,102.834689,110.269339,19.855507,23.334038,-3.478531,0.992775,1.166702,-0.173927,-0.781737,-0.039087,-3.937128,0.555556,5,0.636364,7,0.363636,4,0.444444,4,0.416667,0.555556,0.47619,-0.082061,0.565657,0.583114,0.45,0.530808,0.469192,0.55,0.4625,0.45,0.445865,-0.082061,0.565657,0.583788,0.448622,0.45,1.617,0,1.61,0,1610,0,72820,135686,67046,100,100,?,4,1616,1616,37,31,31,?,?,?
write.to.file,4,9,weka.classifiers.meta.AttributeSelectedClassifier,'-E \"weka.attributeSelection.WrapperSubsetEval -B weka.classifiers.trees.J48 -F 5 -T 0.01 -R 1 -E DEFAULT -- -C 0.25 -M 2\" -S \"weka.attributeSelection.BestFirst -D 1 -N 5\" -W weka.classifiers.trees.J48 -batch-size 20 -- -C 0.25 -M 2 -batch-size 20',-1151805453487947577,20191010.0959,180,20,10,10,0,50,50,0,-0.030928,0.486111,0.50356,98.193365,101.219393,19.855507,20.070884,-0.215378,0.992775,1.003544,-0.010769,0.246191,0.01231,1.239912,0.333333,3,0.363636,4,0.636364,7,0.666667,6,0.428571,0.333333,0.375,-0.031607,0.515152,0.458647,0.5,0.530303,0.469697,0.5,0.489011,0.5,0.489583,-0.031607,0.515152,0.527929,0.479167,0.5,0.916,0,0.91,0,910,0,67053,135686,67046,100,100,?,1,916,916,5,3,3,?,?,?
write.to.file,4,10,weka.classifiers.meta.AttributeSelectedClassifier,'-E \"weka.attributeSelection.WrapperSubsetEval -B weka.classifiers.trees.J48 -F 5 -T 0.01 -R 1 -E DEFAULT -- -C 0.25 -M 2\" -S \"weka.attributeSelection.BestFirst -D 1 -N 5\" -W weka.classifiers.trees.J48 -batch-size 20 -- -C 0.25 -M 2 -batch-size 20',-1151805453487947577,20191010.0959,180,20,10,10,0,50,50,0,-0.075269,0.501446,0.509154,101.290894,102.343821,19.855507,20.544127,-0.688621,0.992775,1.027206,-0.034431,-0.356093,-0.017805,-1.793419,0.111111,1,0.181818,2,0.818182,9,0.888889,8,0.333333,0.111111,0.166667,-0.098513,0.464646,0.437037,0.5,0.570707,0.429293,0.5,0.441176,0.5,0.428571,-0.098513,0.464646,0.489902,0.404762,0.5,1.634,0,1.63,0,1630,0,67207,135686,67046,100,100,?,3,1633,1634,5,3,3,?,?,?
write.to.file,5,1,weka.classifiers.meta.AttributeSelectedClassifier,'-E \"weka.attributeSelection.WrapperSubsetEval -B weka.classifiers.trees.J48 -F 5 -T 0.01 -R 1 -E DEFAULT -- -C 0.25 -M 2\" -S \"weka.attributeSelection.BestFirst -D 1 -N 5\" -W weka.classifiers.trees.J48 -batch-size 20 -- -C 0.25 -M 2 -batch-size 20',-1151805453487947577,20191010.0959,180,20,7,13,0,35,65,0,-0.354167,0.524951,0.544045,106.038919,109.357172,19.855507,22.59292,-2.737413,0.992775,1.129646,-0.136871,-1.779936,-0.088997,-8.964446,0.111111,1,0.454545,5,0.545455,6,0.888889,8,0.166667,0.111111,0.133333,-0.372839,0.368687,0.439571,0.35,0.693434,0.306566,0.65,0.310714,0.35,0.324,-0.372839,0.368687,0.49245,0.306667,0.35,1.178,0.001,1.18,0,1180,0,67128,135686,67046,100,100,?,2,1178,1178,5,3,3,?,?,?
write.to.file,5,2,weka.classifiers.meta.AttributeSelectedClassifier,'-E \"weka.attributeSelection.WrapperSubsetEval -B weka.classifiers.trees.J48 -F 5 -T 0.01 -R 1 -E DEFAULT -- -C 0.25 -M 2\" -S \"weka.attributeSelection.BestFirst -D 1 -N 5\" -W weka.classifiers.trees.J48 -batch-size 20 -- -C 0.25 -M 2 -batch-size 20',-1151805453487947577,20191010.0959,180,20,7,13,0,35,65,0,-0.326531,0.547401,0.568785,110.573773,114.329938,19.855507,24.43164,-4.576133,0.992775,1.221582,-0.228807,-2.703019,-0.135151,-13.613445,0.222222,2,0.545455,6,0.454545,5,0.777778,7,0.25,0.222222,0.235294,-0.328244,0.318182,0.405556,0.35,0.673232,0.326768,0.65,0.341667,0.35,0.345013,-0.328244,0.318182,0.441667,0.335038,0.35,1.973,0,1.97,0,1970,0,67280,135686,67046,100,100,?,4,1972,1973,5,3,3,?,?,?
write.to.file,5,3,weka.classifiers.meta.AttributeSelectedClassifier,'-E \"weka.attributeSelection.WrapperSubsetEval -B weka.classifiers.trees.J48 -F 5 -T 0.01 -R 1 -E DEFAULT -- -C 0.25 -M 2\" -S \"weka.attributeSelection.BestFirst -D 1 -N 5\" -W weka.classifiers.trees.J48 -batch-size 20 -- -C 0.25 -M 2 -batch-size 20',-1151805453487947577,20191010.0959,180,20,7,13,0,35,65,0,-0.326531,0.571671,0.627672,115.476229,126.166826,19.855507,1100.182165,-1080.326658,0.992775,55.009108,-54.016333,-3.613125,-0.180656,-18.197092,0.222222,2,0.545455,6,0.454545,5,0.777778,7,0.25,0.222222,0.235294,-0.328244,0.343434,0.379964,0.35,0.673232,0.326768,0.65,0.341667,0.35,0.345013,-0.328244,0.343434,0.459645,0.335038,0.35,1.873,0.001,1.87,0,1870,0,71458,135686,67046,95,97.5,?,4,1873,1873,29,23,23,?,?,?
write.to.file,5,4,weka.classifiers.meta.AttributeSelectedClassifier,'-E \"weka.attributeSelection.WrapperSubsetEval -B weka.classifiers.trees.J48 -F 5 -T 0.01 -R 1 -E DEFAULT -- -C 0.25 -M 2\" -S \"weka.attributeSelection.BestFirst -D 1 -N 5\" -W weka.classifiers.trees.J48 -batch-size 20 -- -C 0.25 -M 2 -batch-size 20',-1151805453487947577,20191010.0959,180,20,14,6,0,70,30,0,0.393939,0.417482,0.488243,84.330537,98.140421,19.855507,1090.193244,-1070.337737,0.992775,54.509662,-53.516887,3.758774,0.187939,18.930638,0.666667,6,0.272727,3,0.727273,8,0.333333,3,0.666667,0.666667,0.666667,0.393939,0.70202,0.564484,0.7,0.306061,0.693939,0.3,0.7,0.7,0.7,0.393939,0.70202,0.686716,0.69697,0.7,4.658,0,4.65,0,4650,0,73978,135686,67046,95,97.5,?,8,4657,4658,41,28,28,?,?,?
write.to.file,5,5,weka.classifiers.meta.AttributeSelectedClassifier,'-E \"weka.attributeSelection.WrapperSubsetEval -B weka.classifiers.trees.J48 -F 5 -T 0.01 -R 1 -E DEFAULT -- -C 0.25 -M 2\" -S \"weka.attributeSelection.BestFirst -D 1 -N 5\" -W weka.classifiers.trees.J48 -batch-size 20 -- -C 0.25 -M 2 -batch-size 20',-1151805453487947577,20191010.0959,180,20,9,11,0,45,55,0,-0.195652,0.509771,0.525367,102.972609,105.602621,19.855507,21.529548,-1.674042,0.992775,1.076477,-0.083702,-0.845246,-0.042262,-4.256986,0,0,0.181818,2,0.818182,9,1,9,0,0,0,-0.301511,0.454545,0.473684,0.45,0.631818,0.368182,0.55,0.275,0.45,0.341379,-0.301511,0.454545,0.518158,0.310345,0.45,1.45,0,1.45,0,1450,0,68328,135686,67046,100,100,?,4,1449,1450,11,8,8,?,?,?
write.to.file,5,6,weka.classifiers.meta.AttributeSelectedClassifier,'-E \"weka.attributeSelection.WrapperSubsetEval -B weka.classifiers.trees.J48 -F 5 -T 0.01 -R 1 -E DEFAULT -- -C 0.25 -M 2\" -S \"weka.attributeSelection.BestFirst -D 1 -N 5\" -W weka.classifiers.trees.J48 -batch-size 20 -- -C 0.25 -M 2 -batch-size 20',-1151805453487947577,20191010.0959,180,20,12,8,0,60,40,0,0.175258,0.402446,0.500497,81.293176,100.60357,19.855507,1090.144612,-1070.289105,0.992775,54.507231,-53.514455,3.859516,0.192976,19.438011,0.444444,4,0.272727,3,0.727273,8,0.555556,5,0.571429,0.444444,0.5,0.179106,0.70202,0.609893,0.6,0.428283,0.571717,0.4,0.595604,0.6,0.591667,0.179106,0.70202,0.669511,0.583333,0.6,5.721,0,5.7,0,5700,0,74677,135686,67046,95,90,?,9,5720,5721,45,34,34,?,?,?
write.to.file,5,7,weka.classifiers.meta.AttributeSelectedClassifier,'-E \"weka.attributeSelection.WrapperSubsetEval -B weka.classifiers.trees.J48 -F 5 -T 0.01 -R 1 -E DEFAULT -- -C 0.25 -M 2\" -S \"weka.attributeSelection.BestFirst -D 1 -N 5\" -W weka.classifiers.trees.J48 -batch-size 20 -- -C 0.25 -M 2 -batch-size 20',-1151805453487947577,20191010.0959,180,20,8,12,0,40,60,0,-0.237113,0.513815,0.531196,103.789583,106.774298,19.855507,21.84056,-1.985054,0.992775,1.092028,-0.099253,-1.131879,-0.056594,-5.700579,0.222222,2,0.454545,5,0.545455,6,0.777778,7,0.285714,0.222222,0.25,-0.24232,0.419192,0.431913,0.4,0.632323,0.367677,0.6,0.382418,0.4,0.3875,-0.24232,0.419192,0.497246,0.375,0.4,0.95,0,0.94,0,940,0,67472,135686,67046,100,100,?,2,948,948,7,5,5,?,?,?
write.to.file,5,8,weka.classifiers.meta.AttributeSelectedClassifier,'-E \"weka.attributeSelection.WrapperSubsetEval -B weka.classifiers.trees.J48 -F 5 -T 0.01 -R 1 -E DEFAULT -- -C 0.25 -M 2\" -S \"weka.attributeSelection.BestFirst -D 1 -N 5\" -W weka.classifiers.trees.J48 -batch-size 20 -- -C 0.25 -M 2 -batch-size 20',-1151805453487947577,20191010.0959,180,20,8,12,0,40,60,0,-0.212121,0.517504,0.527619,104.534657,106.055284,19.855507,21.667101,-1.811594,0.992775,1.083355,-0.09058,-1.242124,-0.062106,-6.255814,0.333333,3,0.545455,6,0.454545,5,0.666667,6,0.333333,0.333333,0.333333,-0.212121,0.393939,0.411111,0.4,0.612121,0.387879,0.6,0.4,0.4,0.4,-0.212121,0.393939,0.463636,0.393939,0.4,1.294,0,1.29,0,1290,0,66847,135686,67046,100,100,?,3,1294,1294,3,2,2,?,?,?
write.to.file,5,9,weka.classifiers.meta.AttributeSelectedClassifier,'-E \"weka.attributeSelection.WrapperSubsetEval -B weka.classifiers.trees.J48 -F 5 -T 0.01 -R 1 -E DEFAULT -- -C 0.25 -M 2\" -S \"weka.attributeSelection.BestFirst -D 1 -N 5\" -W weka.classifiers.trees.J48 -batch-size 20 -- -C 0.25 -M 2 -batch-size 20',-1151805453487947577,20191010.0959,180,20,11,9,0,55,45,0,0.021739,0.439863,0.57298,88.851332,115.173274,19.855507,1097.212517,-1077.35701,0.992775,54.860626,-53.86785,2.093575,0.104679,10.544052,0.111111,1,0.090909,1,0.909091,10,0.888889,8,0.5,0.111111,0.181818,0.033501,0.606061,0.541246,0.55,0.529798,0.470202,0.45,0.530556,0.55,0.461129,0.033501,0.606061,0.609235,0.435737,0.55,3.373,0,3.36,0,3360,0,74230,135686,67046,95,87.5,?,6,3371,3372,43,27,27,?,?,?
write.to.file,5,10,weka.classifiers.meta.AttributeSelectedClassifier,'-E \"weka.attributeSelection.WrapperSubsetEval -B weka.classifiers.trees.J48 -F 5 -T 0.01 -R 1 -E DEFAULT -- -C 0.25 -M 2\" -S \"weka.attributeSelection.BestFirst -D 1 -N 5\" -W weka.classifiers.trees.J48 -batch-size 20 -- -C 0.25 -M 2 -batch-size 20',-1151805453487947577,20191010.0959,180,20,11,9,0,55,45,0,0.0625,0.461972,0.540173,93.317385,108.57883,19.855507,2163.456612,-2143.601106,0.992775,108.172831,-107.180055,1.44432,0.072216,7.274155,0.333333,3,0.272727,3,0.727273,8,0.666667,6,0.5,0.333333,0.4,0.065795,0.641414,0.525309,0.55,0.489394,0.510606,0.45,0.539286,0.55,0.532,0.065795,0.641414,0.664157,0.52,0.55,4.342,0,4.32,0,4320,0,75113,135686,67046,90,92.5,?,7,4342,4342,48,34,34,?,?,?
write.to.file,6,1,weka.classifiers.meta.AttributeSelectedClassifier,'-E \"weka.attributeSelection.WrapperSubsetEval -B weka.classifiers.trees.J48 -F 5 -T 0.01 -R 1 -E DEFAULT -- -C 0.25 -M 2\" -S \"weka.attributeSelection.BestFirst -D 1 -N 5\" -W weka.classifiers.trees.J48 -batch-size 20 -- -C 0.25 -M 2 -batch-size 20',-1151805453487947577,20191010.0959,180,20,11,9,0,55,45,0,0.117647,0.495552,0.550985,100.100417,110.752032,19.855507,1094.283049,-1074.427542,0.992775,54.714152,-53.721377,0.084926,0.004246,0.427721,0.666667,6,0.545455,6,0.454545,5,0.333333,3,0.5,0.666667,0.571429,0.123091,0.510101,0.488552,0.55,0.428788,0.571212,0.45,0.56875,0.55,0.546617,0.123091,0.510101,0.54176,0.548872,0.55,2.374,0,2.37,0,2370,0,70804,135686,67046,95,95,?,4,2374,2374,25,18,18,?,?,?
write.to.file,6,2,weka.classifiers.meta.AttributeSelectedClassifier,'-E \"weka.attributeSelection.WrapperSubsetEval -B weka.classifiers.trees.J48 -F 5 -T 0.01 -R 1 -E DEFAULT -- -C 0.25 -M 2\" -S \"weka.attributeSelection.BestFirst -D 1 -N 5\" -W weka.classifiers.trees.J48 -batch-size 20 -- -C 0.25 -M 2 -batch-size 20',-1151805453487947577,20191010.0959,180,20,9,11,0,45,55,0,-0.122449,0.52619,0.605283,106.289308,121.66646,19.855507,2168.483208,-2148.627701,0.992775,108.42416,-107.431385,-1.49313,-0.074657,-7.519981,0.333333,3,0.454545,5,0.545455,6,0.666667,6,0.375,0.333333,0.352941,-0.123091,0.459596,0.451323,0.45,0.571212,0.428788,0.55,0.44375,0.45,0.44578,-0.123091,0.459596,0.48981,0.43734,0.45,2.499,0,2.48,0,2480,0,70023,135686,67046,90,90,?,5,2499,2499,20,13,13,?,?,?
write.to.file,6,3,weka.classifiers.meta.AttributeSelectedClassifier,'-E \"weka.attributeSelection.WrapperSubsetEval -B weka.classifiers.trees.J48 -F 5 -T 0.01 -R 1 -E DEFAULT -- -C 0.25 -M 2\" -S \"weka.attributeSelection.BestFirst -D 1 -N 5\" -W weka.classifiers.trees.J48 -batch-size 20 -- -C 0.25 -M 2 -batch-size 20',-1151805453487947577,20191010.0959,180,20,7,13,0,35,65,0,-0.27451,0.698676,0.758321,141.130901,152.428238,19.855507,8606.097408,-8586.241901,0.992775,430.30487,-429.312095,-8.100755,-0.405038,-40.798531,0.444444,4,0.727273,8,0.272727,3,0.555556,5,0.333333,0.444444,0.380952,-0.287213,0.181818,0.342919,0.35,0.632828,0.367172,0.65,0.35625,0.35,0.345113,-0.287213,0.181818,0.402853,0.348371,0.35,2.423,0,2.41,0,2410,0,71615,135686,67046,60,80,?,5,2422,2423,29,19,19,?,?,?
write.to.file,6,4,weka.classifiers.meta.AttributeSelectedClassifier,'-E \"weka.attributeSelection.WrapperSubsetEval -B weka.classifiers.trees.J48 -F 5 -T 0.01 -R 1 -E DEFAULT -- -C 0.25 -M 2\" -S \"weka.attributeSelection.BestFirst -D 1 -N 5\" -W weka.classifiers.trees.J48 -batch-size 20 -- -C 0.25 -M 2 -batch-size 20',-1151805453487947577,20191010.0959,180,20,6,14,0,30,70,0,-0.414141,0.547364,0.580241,110.566262,116.632826,19.855507,1095.668404,-1075.812897,0.992775,54.78342,-53.790645,-2.773393,-0.13867,-13.96788,0.222222,2,0.636364,7,0.363636,4,0.777778,7,0.222222,0.222222,0.222222,-0.414141,0.277778,0.396296,0.3,0.714141,0.285859,0.7,0.3,0.3,0.3,-0.414141,0.277778,0.445227,0.292929,0.3,1.96,0,1.96,0,1960,0,69402,135686,67046,95,95,?,4,1960,1960,17,12,12,?,?,?
write.to.file,6,5,weka.classifiers.meta.AttributeSelectedClassifier,'-E \"weka.attributeSelection.WrapperSubsetEval -B weka.classifiers.trees.J48 -F 5 -T 0.01 -R 1 -E DEFAULT -- -C 0.25 -M 2\" -S \"weka.attributeSelection.BestFirst -D 1 -N 5\" -W weka.classifiers.trees.J48 -batch-size 20 -- -C 0.25 -M 2 -batch-size 20',-1151805453487947577,20191010.0959,180,20,7,13,0,35,65,0,-0.226415,0.54045,0.553279,109.169754,111.213154,19.855507,23.458802,-3.603295,0.992775,1.17294,-0.180165,-2.337131,-0.116857,-11.770696,0.666667,6,0.909091,10,0.090909,1,0.333333,3,0.375,0.666667,0.48,-0.301511,0.373737,0.393567,0.35,0.592424,0.407576,0.65,0.30625,0.35,0.289333,-0.301511,0.373737,0.464605,0.306667,0.35,1.165,0,1.16,0,1160,0,68929,135686,67046,100,100,?,3,1164,1165,15,12,12,?,?,?
write.to.file,6,6,weka.classifiers.meta.AttributeSelectedClassifier,'-E \"weka.attributeSelection.WrapperSubsetEval -B weka.classifiers.trees.J48 -F 5 -T 0.01 -R 1 -E DEFAULT -- -C 0.25 -M 2\" -S \"weka.attributeSelection.BestFirst -D 1 -N 5\" -W weka.classifiers.trees.J48 -batch-size 20 -- -C 0.25 -M 2 -batch-size 20',-1151805453487947577,20191010.0959,180,20,8,12,0,40,60,0,-0.237113,0.530653,0.550663,107.19071,110.687371,19.855507,23.193419,-3.337912,0.992775,1.159671,-0.166896,-1.857549,-0.092877,-9.355336,0.222222,2,0.454545,5,0.545455,6,0.777778,7,0.285714,0.222222,0.25,-0.24232,0.383838,0.413492,0.4,0.632323,0.367677,0.6,0.382418,0.4,0.3875,-0.24232,0.383838,0.462033,0.375,0.4,1.244,0,1.23,0,1230,0,66845,135686,67046,100,100,?,3,1244,1244,3,2,2,?,?,?
write.to.file,6,7,weka.classifiers.meta.AttributeSelectedClassifier,'-E \"weka.attributeSelection.WrapperSubsetEval -B weka.classifiers.trees.J48 -F 5 -T 0.01 -R 1 -E DEFAULT -- -C 0.25 -M 2\" -S \"weka.attributeSelection.BestFirst -D 1 -N 5\" -W weka.classifiers.trees.J48 -batch-size 20 -- -C 0.25 -M 2 -batch-size 20',-1151805453487947577,20191010.1,180,20,10,10,0,50,50,0,-0.030928,0.511929,0.58691,103.408592,117.973295,19.855507,2167.590878,-2147.735371,0.992775,108.379544,-107.386769,-0.652932,-0.032647,-3.288416,0.333333,3,0.363636,4,0.636364,7,0.666667,6,0.428571,0.333333,0.375,-0.031607,0.525253,0.482604,0.5,0.530303,0.469697,0.5,0.489011,0.5,0.489583,-0.031607,0.525253,0.559351,0.479167,0.5,3.924,0,3.91,0,3910,0,70411,135686,67046,90,92.5,?,7,3923,3924,21,11,11,?,?,?
write.to.file,6,8,weka.classifiers.meta.AttributeSelectedClassifier,'-E \"weka.attributeSelection.WrapperSubsetEval -B weka.classifiers.trees.J48 -F 5 -T 0.01 -R 1 -E DEFAULT -- -C 0.25 -M 2\" -S \"weka.attributeSelection.BestFirst -D 1 -N 5\" -W weka.classifiers.trees.J48 -batch-size 20 -- -C 0.25 -M 2 -batch-size 20',-1151805453487947577,20191010.1,180,20,8,12,0,40,60,0,-0.263158,0.551331,0.578737,111.367696,116.330399,19.855507,1095.955204,-1076.099698,0.992775,54.79776,-53.804985,-2.582862,-0.129143,-13.008293,0.111111,1,0.363636,4,0.636364,7,0.888889,8,0.2,0.111111,0.142857,-0.290129,0.393939,0.405556,0.4,0.652525,0.347475,0.6,0.346667,0.4,0.36044,-0.290129,0.393939,0.459649,0.340659,0.4,1.914,0.001,1.9,0,1900,0,68376,135686,67046,95,97.5,?,4,1913,1913,11,6,6,?,?,?
write.to.file,6,9,weka.classifiers.meta.AttributeSelectedClassifier,'-E \"weka.attributeSelection.WrapperSubsetEval -B weka.classifiers.trees.J48 -F 5 -T 0.01 -R 1 -E DEFAULT -- -C 0.25 -M 2\" -S \"weka.attributeSelection.BestFirst -D 1 -N 5\" -W weka.classifiers.trees.J48 -batch-size 20 -- -C 0.25 -M 2 -batch-size 20',-1151805453487947577,20191010.1,180,20,12,8,0,60,40,0,0.223301,0.468578,0.482927,94.651771,97.07185,19.855507,19.003092,0.852415,0.992775,0.950155,0.042621,1.289117,0.064456,6.49249,0.777778,7,0.545455,6,0.454545,5,0.222222,2,0.538462,0.777778,0.636364,0.24232,0.606061,0.518803,0.6,0.367677,0.632323,0.4,0.635165,0.6,0.591919,0.24232,0.606061,0.567509,0.59596,0.6,1.512,0,1.5,0,1500,0,67205,135686,67046,100,100,?,3,1512,1512,5,3,3,?,?,?
write.to.file,6,10,weka.classifiers.meta.AttributeSelectedClassifier,'-E \"weka.attributeSelection.WrapperSubsetEval -B weka.classifiers.trees.J48 -F 5 -T 0.01 -R 1 -E DEFAULT -- -C 0.25 -M 2\" -S \"weka.attributeSelection.BestFirst -D 1 -N 5\" -W weka.classifiers.trees.J48 -batch-size 20 -- -C 0.25 -M 2 -batch-size 20',-1151805453487947577,20191010.1,180,20,11,9,0,55,45,0,0.081633,0.461111,0.48458,93.143421,97.404152,19.855507,18.845879,1.009627,0.992775,0.942294,0.050481,1.388027,0.069401,6.99064,0.444444,4,0.363636,4,0.636364,7,0.555556,5,0.5,0.444444,0.470588,0.082061,0.590909,0.5,0.55,0.469192,0.530808,0.45,0.545833,0.55,0.546547,0.082061,0.590909,0.580833,0.539642,0.55,1.3,0,1.29,0,1290,0,67211,135686,67046,100,100,?,3,1300,1300,5,3,3,?,?,?
write.to.file,7,1,weka.classifiers.meta.AttributeSelectedClassifier,'-E \"weka.attributeSelection.WrapperSubsetEval -B weka.classifiers.trees.J48 -F 5 -T 0.01 -R 1 -E DEFAULT -- -C 0.25 -M 2\" -S \"weka.attributeSelection.BestFirst -D 1 -N 5\" -W weka.classifiers.trees.J48 -batch-size 20 -- -C 0.25 -M 2 -batch-size 20',-1151805453487947577,20191010.1,180,20,8,12,0,40,60,0,-0.263158,0.545288,0.588903,110.147059,118.373827,19.855507,26.799768,-6.944261,0.992775,1.339988,-0.347213,-2.399214,-0.119961,-12.083367,0.111111,1,0.363636,4,0.636364,7,0.888889,8,0.2,0.111111,0.142857,-0.290129,0.353535,0.402148,0.4,0.652525,0.347475,0.6,0.346667,0.4,0.36044,-0.290129,0.353535,0.442006,0.340659,0.4,1.6,0,1.59,0,1590,0,71314,135686,67046,100,100,?,4,1599,1600,28,21,21,?,?,?
write.to.file,7,2,weka.classifiers.meta.AttributeSelectedClassifier,'-E \"weka.attributeSelection.WrapperSubsetEval -B weka.classifiers.trees.J48 -F 5 -T 0.01 -R 1 -E DEFAULT -- -C 0.25 -M 2\" -S \"weka.attributeSelection.BestFirst -D 1 -N 5\" -W weka.classifiers.trees.J48 -batch-size 20 -- -C 0.25 -M 2 -batch-size 20',-1151805453487947577,20191010.1,180,20,10,10,0,50,50,0,0.029126,0.530357,0.582428,107.130966,117.072286,19.855507,2166.867655,-2147.012148,0.992775,108.343383,-107.350607,-1.449553,-0.072478,-7.300509,0.666667,6,0.636364,7,0.363636,4,0.333333,3,0.461538,0.666667,0.545455,0.031607,0.429293,0.456458,0.5,0.469697,0.530303,0.5,0.521978,0.5,0.489899,0.031607,0.429293,0.486365,0.494949,0.5,4.22,0,4.21,0,4210,0,69748,135686,67046,90,92.5,?,8,4219,4220,17,10,10,?,?,?
write.to.file,7,3,weka.classifiers.meta.AttributeSelectedClassifier,'-E \"weka.attributeSelection.WrapperSubsetEval -B weka.classifiers.trees.J48 -F 5 -T 0.01 -R 1 -E DEFAULT -- -C 0.25 -M 2\" -S \"weka.attributeSelection.BestFirst -D 1 -N 5\" -W weka.classifiers.trees.J48 -batch-size 20 -- -C 0.25 -M 2 -batch-size 20',-1151805453487947577,20191010.1,180,20,7,13,0,35,65,0,-0.326531,0.52925,0.540208,106.907279,108.58582,19.855507,22.46097,-2.605463,0.992775,1.123048,-0.130273,-1.865236,-0.093262,-9.394048,0.222222,2,0.545455,6,0.454545,5,0.777778,7,0.25,0.222222,0.235294,-0.328244,0.338384,0.405556,0.35,0.673232,0.326768,0.65,0.341667,0.35,0.345013,-0.328244,0.338384,0.451667,0.335038,0.35,1.046,0,1.04,0,1040,0,66768,135686,67046,100,100,?,2,1045,1045,3,2,2,?,?,?
write.to.file,7,4,weka.classifiers.meta.AttributeSelectedClassifier,'-E \"weka.attributeSelection.WrapperSubsetEval -B weka.classifiers.trees.J48 -F 5 -T 0.01 -R 1 -E DEFAULT -- -C 0.25 -M 2\" -S \"weka.attributeSelection.BestFirst -D 1 -N 5\" -W weka.classifiers.trees.J48 -batch-size 20 -- -C 0.25 -M 2 -batch-size 20',-1151805453487947577,20191010.1,180,20,11,9,0,55,45,0,0.021739,0.506071,0.525653,102.225305,105.660192,19.855507,1092.329493,-1072.473986,0.992775,54.616475,-53.623699,-0.312618,-0.015631,-1.574464,0.111111,1,0.090909,1,0.909091,10,0.888889,8,0.5,0.111111,0.181818,0.033501,0.555556,0.483333,0.55,0.529798,0.470202,0.45,0.530556,0.55,0.461129,0.033501,0.555556,0.540139,0.435737,0.55,3.491,0,3.48,0,3480,0,68453,135686,67046,95,97.5,?,5,3491,3491,11,6,6,?,?,?
write.to.file,7,5,weka.classifiers.meta.AttributeSelectedClassifier,'-E \"weka.attributeSelection.WrapperSubsetEval -B weka.classifiers.trees.J48 -F 5 -T 0.01 -R 1 -E DEFAULT -- -C 0.25 -M 2\" -S \"weka.attributeSelection.BestFirst -D 1 -N 5\" -W weka.classifiers.trees.J48 -batch-size 20 -- -C 0.25 -M 2 -batch-size 20',-1151805453487947577,20191010.1,180,20,11,9,0,55,45,0,0.134615,0.480508,0.493716,97.061645,99.240606,19.855507,19.633099,0.222407,0.992775,0.981655,0.01112,0.677695,0.033885,3.413133,0.777778,7,0.636364,7,0.363636,4,0.222222,2,0.5,0.777778,0.608696,0.153522,0.570707,0.488889,0.55,0.408586,0.591414,0.45,0.591667,0.55,0.532737,0.153522,0.570707,0.545833,0.539642,0.55,1.023,0,1.02,0,1020,0,67128,135686,67046,100,100,?,2,1023,1023,5,3,3,?,?,?
write.to.file,7,6,weka.classifiers.meta.AttributeSelectedClassifier,'-E \"weka.attributeSelection.WrapperSubsetEval -B weka.classifiers.trees.J48 -F 5 -T 0.01 -R 1 -E DEFAULT -- -C 0.25 -M 2\" -S \"weka.attributeSelection.BestFirst -D 1 -N 5\" -W weka.classifiers.trees.J48 -batch-size 20 -- -C 0.25 -M 2 -batch-size 20',-1151805453487947577,20191010.1,180,20,10,10,0,50,50,0,-0.075269,0.503846,0.566058,101.775805,113.781793,19.855507,2166.060673,-2146.205167,0.992775,108.303034,-107.310258,-0.401781,-0.020089,-2.023526,0.111111,1,0.181818,2,0.818182,9,0.888889,8,0.333333,0.111111,0.166667,-0.098513,0.5,0.45305,0.5,0.570707,0.429293,0.5,0.441176,0.5,0.428571,-0.098513,0.5,0.510833,0.404762,0.5,3.047,0,3.04,0,3040,0,69938,135686,67046,90,92.5,?,6,3047,3047,19,12,12,?,?,?
write.to.file,7,7,weka.classifiers.meta.AttributeSelectedClassifier,'-E \"weka.attributeSelection.WrapperSubsetEval -B weka.classifiers.trees.J48 -F 5 -T 0.01 -R 1 -E DEFAULT -- -C 0.25 -M 2\" -S \"weka.attributeSelection.BestFirst -D 1 -N 5\" -W weka.classifiers.trees.J48 -batch-size 20 -- -C 0.25 -M 2 -batch-size 20',-1151805453487947577,20191010.1,180,20,10,10,0,50,50,0,-0.010101,0.503676,0.53367,101.741529,107.271661,19.855507,22.250352,-2.394845,0.992775,1.112518,-0.119742,-0.435168,-0.021758,-2.191672,0.444444,4,0.454545,5,0.545455,6,0.555556,5,0.444444,0.444444,0.444444,-0.010101,0.459596,0.441534,0.5,0.510101,0.489899,0.5,0.5,0.5,0.5,-0.010101,0.459596,0.488272,0.494949,0.5,3.334,0,3.33,0,3330,0,68617,135686,67046,100,100,?,5,3334,3334,12,7,7,?,?,?
write.to.file,7,8,weka.classifiers.meta.AttributeSelectedClassifier,'-E \"weka.attributeSelection.WrapperSubsetEval -B weka.classifiers.trees.J48 -F 5 -T 0.01 -R 1 -E DEFAULT -- -C 0.25 -M 2\" -S \"weka.attributeSelection.BestFirst -D 1 -N 5\" -W weka.classifiers.trees.J48 -batch-size 20 -- -C 0.25 -M 2 -batch-size 20',-1151805453487947577,20191010.1,180,20,10,10,0,50,50,0,-0.052632,0.49637,0.540609,100.265691,108.666335,19.855507,22.880163,-3.024656,0.992775,1.144008,-0.151233,-0.118831,-0.005942,-0.598477,0.222222,2,0.272727,3,0.727273,8,0.777778,7,0.4,0.222222,0.285714,-0.058026,0.570707,0.478389,0.5,0.550505,0.449495,0.5,0.473333,0.5,0.467033,-0.058026,0.570707,0.576108,0.450549,0.5,3.32,0,3.31,0,3310,0,71654,135686,67046,100,100,?,6,3320,3320,29,21,21,?,?,?
write.to.file,7,9,weka.classifiers.meta.AttributeSelectedClassifier,'-E \"weka.attributeSelection.WrapperSubsetEval -B weka.classifiers.trees.J48 -F 5 -T 0.01 -R 1 -E DEFAULT -- -C 0.25 -M 2\" -S \"weka.attributeSelection.BestFirst -D 1 -N 5\" -W weka.classifiers.trees.J48 -batch-size 20 -- -C 0.25 -M 2 -batch-size 20',-1151805453487947577,20191010.1,180,20,9,11,0,45,55,0,-0.122449,0.525,0.560102,106.048835,112.584639,19.855507,24.5141,-4.658593,0.992775,1.225705,-0.23293,-1.454624,-0.072731,-7.326049,0.333333,3,0.454545,5,0.545455,6,0.666667,6,0.375,0.333333,0.352941,-0.123091,0.434343,0.432602,0.45,0.571212,0.428788,0.55,0.44375,0.45,0.44578,-0.123091,0.434343,0.499671,0.43734,0.45,2.689,0,2.68,0,2680,0,68793,135686,67046,100,100,?,5,2689,2689,13,8,8,?,?,?
write.to.file,7,10,weka.classifiers.meta.AttributeSelectedClassifier,'-E \"weka.attributeSelection.WrapperSubsetEval -B weka.classifiers.trees.J48 -F 5 -T 0.01 -R 1 -E DEFAULT -- -C 0.25 -M 2\" -S \"weka.attributeSelection.BestFirst -D 1 -N 5\" -W weka.classifiers.trees.J48 -batch-size 20 -- -C 0.25 -M 2 -batch-size 20',-1151805453487947577,20191010.1,180,20,12,8,0,60,40,0,0.157895,0.417537,0.518474,84.341472,104.217129,19.855507,1090.964264,-1071.108757,0.992775,54.548213,-53.555438,3.012222,0.150611,15.170714,0.333333,3,0.181818,2,0.818182,9,0.666667,6,0.6,0.333333,0.428571,0.174078,0.575758,0.564815,0.6,0.448485,0.551515,0.4,0.6,0.6,0.573626,0.174078,0.575758,0.622381,0.56044,0.6,2.948,0,2.94,0,2940,0,74139,135686,67046,95,87.5,?,7,2947,2948,43,34,34,?,?,?
write.to.file,8,1,weka.classifiers.meta.AttributeSelectedClassifier,'-E \"weka.attributeSelection.WrapperSubsetEval -B weka.classifiers.trees.J48 -F 5 -T 0.01 -R 1 -E DEFAULT -- -C 0.25 -M 2\" -S \"weka.attributeSelection.BestFirst -D 1 -N 5\" -W weka.classifiers.trees.J48 -batch-size 20 -- -C 0.25 -M 2 -batch-size 20',-1151805453487947577,20191010.1,180,20,11,9,0,55,45,0,0,0.483787,0.488042,97.723983,98.100116,19.855507,19.310167,0.54534,0.992775,0.965508,0.027267,0.603861,0.030193,3.041279,0,0,0,0,1,11,1,9,?,0,?,?,0.69697,0.594444,0.55,0.55,0.45,0.45,?,0.55,?,?,0.69697,0.640909,?,0.55,1.449,0.001,1.45,0,1450,0,68526,135686,67046,100,100,?,4,1449,1449,12,8,8,?,?,?
write.to.file,8,2,weka.classifiers.meta.AttributeSelectedClassifier,'-E \"weka.attributeSelection.WrapperSubsetEval -B weka.classifiers.trees.J48 -F 5 -T 0.01 -R 1 -E DEFAULT -- -C 0.25 -M 2\" -S \"weka.attributeSelection.BestFirst -D 1 -N 5\" -W weka.classifiers.trees.J48 -batch-size 20 -- -C 0.25 -M 2 -batch-size 20',-1151805453487947577,20191010.1,180,20,14,6,0,70,30,0,0.368421,0.381992,0.478729,77.161596,96.228035,19.855507,19.000486,0.855021,0.992775,0.950024,0.042751,4.958666,0.247933,24.973755,0.444444,4,0.090909,1,0.909091,10,0.555556,5,0.8,0.444444,0.571429,0.406181,0.691919,0.693143,0.7,0.346465,0.653535,0.3,0.726667,0.7,0.68022,0.406181,0.691919,0.702946,0.67033,0.7,3.986,0,3.98,0,3980,0,72819,135686,67046,100,95,?,7,3986,3986,35,24,24,?,?,?
write.to.file,8,3,weka.classifiers.meta.AttributeSelectedClassifier,'-E \"weka.attributeSelection.WrapperSubsetEval -B weka.classifiers.trees.J48 -F 5 -T 0.01 -R 1 -E DEFAULT -- -C 0.25 -M 2\" -S \"weka.attributeSelection.BestFirst -D 1 -N 5\" -W weka.classifiers.trees.J48 -batch-size 20 -- -C 0.25 -M 2 -batch-size 20',-1151805453487947577,20191010.1,180,20,10,10,0,50,50,0,-0.010101,0.454944,0.51686,91.89775,103.892685,19.855507,20.925695,-1.070188,0.992775,1.046285,-0.053509,1.452789,0.072639,7.316804,0.444444,4,0.454545,5,0.545455,6,0.555556,5,0.444444,0.444444,0.444444,-0.010101,0.60101,0.641228,0.5,0.510101,0.489899,0.5,0.5,0.5,0.5,-0.010101,0.60101,0.635141,0.494949,0.5,1.468,0,1.46,0,1460,0,72433,135686,67046,100,97.5,?,3,1467,1467,35,28,28,?,?,?
write.to.file,8,4,weka.classifiers.meta.AttributeSelectedClassifier,'-E \"weka.attributeSelection.WrapperSubsetEval -B weka.classifiers.trees.J48 -F 5 -T 0.01 -R 1 -E DEFAULT -- -C 0.25 -M 2\" -S \"weka.attributeSelection.BestFirst -D 1 -N 5\" -W weka.classifiers.trees.J48 -batch-size 20 -- -C 0.25 -M 2 -batch-size 20',-1151805453487947577,20191010.1,180,20,9,11,0,45,55,0,-0.057692,0.506075,0.522787,102.225979,105.084076,19.855507,21.448091,-1.592584,0.992775,1.072405,-0.079629,-0.631332,-0.031567,-3.179634,0.666667,6,0.727273,8,0.272727,3,0.333333,3,0.428571,0.666667,0.521739,-0.065795,0.469697,0.43448,0.45,0.510606,0.489394,0.55,0.467857,0.45,0.4289,-0.065795,0.469697,0.490516,0.43734,0.45,1.315,0,1.3,0,1300,0,67207,135686,67046,100,100,?,3,1315,1315,5,3,3,?,?,?
write.to.file,8,5,weka.classifiers.meta.AttributeSelectedClassifier,'-E \"weka.attributeSelection.WrapperSubsetEval -B weka.classifiers.trees.J48 -F 5 -T 0.01 -R 1 -E DEFAULT -- -C 0.25 -M 2\" -S \"weka.attributeSelection.BestFirst -D 1 -N 5\" -W weka.classifiers.trees.J48 -batch-size 20 -- -C 0.25 -M 2 -batch-size 20',-1151805453487947577,20191010.1,180,20,13,7,0,65,35,0,0.285714,0.438613,0.530827,88.598927,106.700169,19.855507,2163.12094,-2143.265433,0.992775,108.156047,-107.163272,2.714553,0.135728,13.671538,0.555556,5,0.272727,3,0.727273,8,0.444444,4,0.625,0.555556,0.588235,0.287213,0.616162,0.523914,0.65,0.367172,0.632828,0.35,0.647917,0.65,0.647315,0.287213,0.616162,0.60222,0.641944,0.65,2.348,0.001,2.34,0,2340,0,69861,135686,67046,90,90,?,5,2348,2348,19,12,12,?,?,?
write.to.file,8,6,weka.classifiers.meta.AttributeSelectedClassifier,'-E \"weka.attributeSelection.WrapperSubsetEval -B weka.classifiers.trees.J48 -F 5 -T 0.01 -R 1 -E DEFAULT -- -C 0.25 -M 2\" -S \"weka.attributeSelection.BestFirst -D 1 -N 5\" -W weka.classifiers.trees.J48 -batch-size 20 -- -C 0.25 -M 2 -batch-size 20',-1151805453487947577,20191010.1,180,20,9,11,0,45,55,0,-0.170213,0.522012,0.546924,105.445322,109.935856,19.855507,23.15392,-3.298413,0.992775,1.157696,-0.164921,-1.346493,-0.067325,-6.78146,0.111111,1,0.272727,3,0.727273,8,0.888889,8,0.25,0.111111,0.153846,-0.201008,0.378788,0.389916,0.45,0.611616,0.388384,0.55,0.3875,0.45,0.395157,-0.201008,0.378788,0.445783,0.373219,0.45,2.473,0.001,2.47,0,2470,0,69089,135686,67046,100,100,?,5,2473,2473,15,12,12,?,?,?
write.to.file,8,7,weka.classifiers.meta.AttributeSelectedClassifier,'-E \"weka.attributeSelection.WrapperSubsetEval -B weka.classifiers.trees.J48 -F 5 -T 0.01 -R 1 -E DEFAULT -- -C 0.25 -M 2\" -S \"weka.attributeSelection.BestFirst -D 1 -N 5\" -W weka.classifiers.trees.J48 -batch-size 20 -- -C 0.25 -M 2 -batch-size 20',-1151805453487947577,20191010.1,180,20,9,11,0,45,55,0,-0.195652,0.486189,0.54092,98.209074,108.728975,19.855507,23.211997,-3.356491,0.992775,1.1606,-0.167825,0.197085,0.009854,0.992595,0,0,0.181818,2,0.818182,9,1,9,0,0,0,-0.301511,0.560606,0.524747,0.45,0.631818,0.368182,0.55,0.275,0.45,0.341379,-0.301511,0.560606,0.577452,0.310345,0.45,2.49,0,2.48,0,2480,0,70144,135686,67046,100,100,?,4,2490,2490,21,13,13,?,?,?
write.to.file,8,8,weka.classifiers.meta.AttributeSelectedClassifier,'-E \"weka.attributeSelection.WrapperSubsetEval -B weka.classifiers.trees.J48 -F 5 -T 0.01 -R 1 -E DEFAULT -- -C 0.25 -M 2\" -S \"weka.attributeSelection.BestFirst -D 1 -N 5\" -W weka.classifiers.trees.J48 -batch-size 20 -- -C 0.25 -M 2 -batch-size 20',-1151805453487947577,20191010.1,180,20,9,11,0,45,55,0,-0.145833,0.580283,0.639196,117.215867,128.483056,19.855507,3242.008083,-3222.152577,0.992775,162.100404,-161.107629,-3.602202,-0.18011,-18.142083,0.222222,2,0.363636,4,0.636364,7,0.777778,7,0.333333,0.222222,0.266667,-0.153522,0.292929,0.358515,0.45,0.591414,0.408586,0.55,0.425,0.45,0.428,-0.153522,0.292929,0.417092,0.413333,0.45,1.643,0,1.64,0,1640,0,72585,135686,67046,85,90,?,5,1643,1643,35,28,28,?,?,?
write.to.file,8,9,weka.classifiers.meta.AttributeSelectedClassifier,'-E \"weka.attributeSelection.WrapperSubsetEval -B weka.classifiers.trees.J48 -F 5 -T 0.01 -R 1 -E DEFAULT -- -C 0.25 -M 2\" -S \"weka.attributeSelection.BestFirst -D 1 -N 5\" -W weka.classifiers.trees.J48 -batch-size 20 -- -C 0.25 -M 2 -batch-size 20',-1151805453487947577,20191010.1,180,20,13,7,0,65,35,0,0.3,0.459104,0.478524,92.737957,96.186906,19.855507,18.77413,1.081377,0.992775,0.938706,0.054069,1.78934,0.089467,9.011806,0.666667,6,0.363636,4,0.636364,7,0.333333,3,0.6,0.666667,0.631579,0.301511,0.621212,0.55,0.65,0.34697,0.65303,0.35,0.655,0.65,0.650877,0.301511,0.621212,0.58375,0.649123,0.65,0.922,0,0.92,0,920,0,67128,135686,67046,100,100,?,2,922,922,5,3,3,?,?,?
write.to.file,8,10,weka.classifiers.meta.AttributeSelectedClassifier,'-E \"weka.attributeSelection.WrapperSubsetEval -B weka.classifiers.trees.J48 -F 5 -T 0.01 -R 1 -E DEFAULT -- -C 0.25 -M 2\" -S \"weka.attributeSelection.BestFirst -D 1 -N 5\" -W weka.classifiers.trees.J48 -batch-size 20 -- -C 0.25 -M 2 -batch-size 20',-1151805453487947577,20191010.1,180,20,8,12,0,40,60,0,-0.165049,0.528896,0.541397,106.835839,108.824914,19.855507,22.691007,-2.835501,0.992775,1.13455,-0.141775,-1.714603,-0.08573,-8.635404,0.555556,5,0.727273,8,0.272727,3,0.444444,4,0.384615,0.555556,0.454545,-0.179106,0.383838,0.400095,0.4,0.571717,0.428283,0.6,0.408791,0.4,0.387879,-0.179106,0.383838,0.464328,0.393939,0.4,1.016,0,1.01,0,1010,0,67492,135686,67046,100,100,?,2,1016,1016,7,4,4,?,?,?
write.to.file,9,1,weka.classifiers.meta.AttributeSelectedClassifier,'-E \"weka.attributeSelection.WrapperSubsetEval -B weka.classifiers.trees.J48 -F 5 -T 0.01 -R 1 -E DEFAULT -- -C 0.25 -M 2\" -S \"weka.attributeSelection.BestFirst -D 1 -N 5\" -W weka.classifiers.trees.J48 -batch-size 20 -- -C 0.25 -M 2 -batch-size 20',-1151805453487947577,20191010.1,180,20,10,10,0,50,50,0,-0.030928,0.48458,0.531713,97.88405,106.878204,19.855507,21.923252,-2.067746,0.992775,1.096163,-0.103387,0.246544,0.012327,1.241693,0.333333,3,0.363636,4,0.636364,7,0.666667,6,0.428571,0.333333,0.375,-0.031607,0.434343,0.483126,0.5,0.530303,0.469697,0.5,0.489011,0.5,0.489583,-0.031607,0.434343,0.508596,0.479167,0.5,4.226,0,4.22,0,4220,0,70656,135686,67046,100,97.5,?,6,4226,4226,23,14,14,?,?,?
write.to.file,9,2,weka.classifiers.meta.AttributeSelectedClassifier,'-E \"weka.attributeSelection.WrapperSubsetEval -B weka.classifiers.trees.J48 -F 5 -T 0.01 -R 1 -E DEFAULT -- -C 0.25 -M 2\" -S \"weka.attributeSelection.BestFirst -D 1 -N 5\" -W weka.classifiers.trees.J48 -batch-size 20 -- -C 0.25 -M 2 -batch-size 20',-1151805453487947577,20191010.1,180,20,12,8,0,60,40,0,0.139785,0.450053,0.49032,90.909643,98.55791,19.855507,19.052779,0.802728,0.992775,0.952639,0.040136,1.802463,0.090123,9.077901,0.222222,2,0.090909,1,0.909091,10,0.777778,7,0.666667,0.222222,0.333333,0.182953,0.616162,0.568226,0.6,0.468687,0.531313,0.4,0.623529,0.6,0.542857,0.182953,0.616162,0.61112,0.52381,0.6,1.255,0,1.25,0,1250,0,68247,135686,67046,100,95,?,3,1254,1255,11,8,8,?,?,?
write.to.file,9,3,weka.classifiers.meta.AttributeSelectedClassifier,'-E \"weka.attributeSelection.WrapperSubsetEval -B weka.classifiers.trees.J48 -F 5 -T 0.01 -R 1 -E DEFAULT -- -C 0.25 -M 2\" -S \"weka.attributeSelection.BestFirst -D 1 -N 5\" -W weka.classifiers.trees.J48 -batch-size 20 -- -C 0.25 -M 2 -batch-size 20',-1151805453487947577,20191010.1001,180,20,12,8,0,60,40,0,0.191919,0.459578,0.580825,92.8337,116.750047,19.855507,3237.984632,-3218.129125,0.992775,161.899232,-160.906456,1.819287,0.090964,9.16263,0.555556,5,0.363636,4,0.636364,7,0.444444,4,0.555556,0.555556,0.555556,0.191919,0.484848,0.520679,0.6,0.408081,0.591919,0.4,0.6,0.6,0.6,0.191919,0.484848,0.524178,0.59596,0.6,4.097,0,4.09,0,4090,0,74301,135686,67046,85,92.5,?,7,4096,4097,43,27,27,?,?,?
write.to.file,9,4,weka.classifiers.meta.AttributeSelectedClassifier,'-E \"weka.attributeSelection.WrapperSubsetEval -B weka.classifiers.trees.J48 -F 5 -T 0.01 -R 1 -E DEFAULT -- -C 0.25 -M 2\" -S \"weka.attributeSelection.BestFirst -D 1 -N 5\" -W weka.classifiers.trees.J48 -batch-size 20 -- -C 0.25 -M 2 -batch-size 20',-1151805453487947577,20191010.1001,180,20,9,11,0,45,55,0,-0.122449,0.525282,0.581496,106.105747,116.884993,19.855507,25.818173,-5.962667,0.992775,1.290909,-0.298133,-1.477216,-0.073861,-7.439832,0.333333,3,0.454545,5,0.545455,6,0.666667,6,0.375,0.333333,0.352941,-0.123091,0.414141,0.415608,0.45,0.571212,0.428788,0.55,0.44375,0.45,0.44578,-0.123091,0.414141,0.461888,0.43734,0.45,2.952,0,2.94,0,2940,0,69914,135686,67046,100,100,?,6,2952,2952,19,13,13,?,?,?
write.to.file,9,5,weka.classifiers.meta.AttributeSelectedClassifier,'-E \"weka.attributeSelection.WrapperSubsetEval -B weka.classifiers.trees.J48 -F 5 -T 0.01 -R 1 -E DEFAULT -- -C 0.25 -M 2\" -S \"weka.attributeSelection.BestFirst -D 1 -N 5\" -W weka.classifiers.trees.J48 -batch-size 20 -- -C 0.25 -M 2 -batch-size 20',-1151805453487947577,20191010.1001,180,20,7,13,0,35,65,0,-0.3,0.511778,0.528005,103.377975,106.132839,19.855507,21.548951,-1.693444,0.992775,1.077448,-0.084672,-1.156562,-0.057828,-5.824891,0.333333,3,0.636364,7,0.363636,4,0.666667,6,0.3,0.333333,0.315789,-0.301511,0.424242,0.411741,0.35,0.65303,0.34697,0.65,0.355,0.35,0.351629,-0.301511,0.424242,0.513498,0.348371,0.35,1.001,0,0.99,0,990,0,67836,135686,67046,100,100,?,2,999,1000,9,6,6,?,?,?
write.to.file,9,6,weka.classifiers.meta.AttributeSelectedClassifier,'-E \"weka.attributeSelection.WrapperSubsetEval -B weka.classifiers.trees.J48 -F 5 -T 0.01 -R 1 -E DEFAULT -- -C 0.25 -M 2\" -S \"weka.attributeSelection.BestFirst -D 1 -N 5\" -W weka.classifiers.trees.J48 -batch-size 20 -- -C 0.25 -M 2 -batch-size 20',-1151805453487947577,20191010.1001,180,20,10,10,0,50,50,0,0.009901,0.491364,0.514017,99.254364,103.321323,19.855507,20.902861,-1.047354,0.992775,1.045143,-0.052368,0.104887,0.005244,0.528249,0.555556,5,0.545455,6,0.454545,5,0.444444,4,0.454545,0.555556,0.5,0.010101,0.520202,0.459388,0.5,0.489899,0.510101,0.5,0.510101,0.5,0.5,0.010101,0.520202,0.521725,0.5,0.5,1.025,0,1.02,0,1020,0,67128,135686,67046,100,100,?,2,1025,1025,5,3,3,?,?,?
write.to.file,9,7,weka.classifiers.meta.AttributeSelectedClassifier,'-E \"weka.attributeSelection.WrapperSubsetEval -B weka.classifiers.trees.J48 -F 5 -T 0.01 -R 1 -E DEFAULT -- -C 0.25 -M 2\" -S \"weka.attributeSelection.BestFirst -D 1 -N 5\" -W weka.classifiers.trees.J48 -batch-size 20 -- -C 0.25 -M 2 -batch-size 20',-1151805453487947577,20191010.1001,180,20,11,9,0,55,45,0,0.042553,0.513921,0.537694,103.810934,108.080398,19.855507,22.786931,-2.931424,0.992775,1.139347,-0.146571,-0.778804,-0.03894,-3.922358,0.222222,2,0.181818,2,0.818182,9,0.777778,7,0.5,0.222222,0.307692,0.050252,0.393939,0.42716,0.55,0.509596,0.490404,0.45,0.534375,0.55,0.505128,0.050252,0.393939,0.487496,0.487179,0.55,1.056,0,1.06,0,1060,0,68275,135686,67046,100,100,?,3,1056,1056,11,7,7,?,?,?
write.to.file,9,8,weka.classifiers.meta.AttributeSelectedClassifier,'-E \"weka.attributeSelection.WrapperSubsetEval -B weka.classifiers.trees.J48 -F 5 -T 0.01 -R 1 -E DEFAULT -- -C 0.25 -M 2\" -S \"weka.attributeSelection.BestFirst -D 1 -N 5\" -W weka.classifiers.trees.J48 -batch-size 20 -- -C 0.25 -M 2 -batch-size 20',-1151805453487947577,20191010.1001,180,20,10,10,0,50,50,0,-0.010101,0.507079,0.57173,102.428916,114.922067,19.855507,1095.408034,-1075.552527,0.992775,54.770402,-53.777626,-0.656429,-0.032821,-3.306031,0.444444,4,0.454545,5,0.545455,6,0.555556,5,0.444444,0.444444,0.444444,-0.010101,0.510101,0.463334,0.5,0.510101,0.489899,0.5,0.5,0.5,0.5,-0.010101,0.510101,0.53262,0.494949,0.5,4.247,0,4.24,0,4240,0,71174,135686,67046,95,95,?,8,4246,4247,25,15,15,?,?,?
write.to.file,9,9,weka.classifiers.meta.AttributeSelectedClassifier,'-E \"weka.attributeSelection.WrapperSubsetEval -B weka.classifiers.trees.J48 -F 5 -T 0.01 -R 1 -E DEFAULT -- -C 0.25 -M 2\" -S \"weka.attributeSelection.BestFirst -D 1 -N 5\" -W weka.classifiers.trees.J48 -batch-size 20 -- -C 0.25 -M 2 -batch-size 20',-1151805453487947577,20191010.1001,180,20,12,8,0,60,40,0,0.157895,0.428905,0.499713,86.637855,100.44599,19.855507,19.913507,-0.058,0.992775,0.995675,-0.0029,2.662902,0.133145,13.411401,0.333333,3,0.181818,2,0.818182,9,0.666667,6,0.6,0.333333,0.428571,0.174078,0.585859,0.632697,0.6,0.448485,0.551515,0.4,0.6,0.6,0.573626,0.174078,0.585859,0.63586,0.56044,0.6,1.697,0,1.69,0,1690,0,72870,135686,67046,100,92.5,?,4,1696,1697,37,29,29,?,?,?
write.to.file,9,10,weka.classifiers.meta.AttributeSelectedClassifier,'-E \"weka.attributeSelection.WrapperSubsetEval -B weka.classifiers.trees.J48 -F 5 -T 0.01 -R 1 -E DEFAULT -- -C 0.25 -M 2\" -S \"weka.attributeSelection.BestFirst -D 1 -N 5\" -W weka.classifiers.trees.J48 -batch-size 20 -- -C 0.25 -M 2 -batch-size 20',-1151805453487947577,20191010.1001,180,20,9,11,0,45,55,0,-0.170213,0.497008,0.514033,100.394553,103.32454,19.855507,20.695923,-0.840416,0.992775,1.034796,-0.042021,-0.335532,-0.016777,-1.68987,0.111111,1,0.272727,3,0.727273,8,0.888889,8,0.25,0.111111,0.153846,-0.201008,0.459596,0.44883,0.45,0.611616,0.388384,0.55,0.3875,0.45,0.395157,-0.201008,0.459596,0.509474,0.373219,0.45,1.561,0,1.56,0,1560,0,67207,135686,67046,100,100,?,3,1561,1561,5,3,3,?,?,?
write.to.file,10,1,weka.classifiers.meta.AttributeSelectedClassifier,'-E \"weka.attributeSelection.WrapperSubsetEval -B weka.classifiers.trees.J48 -F 5 -T 0.01 -R 1 -E DEFAULT -- -C 0.25 -M 2\" -S \"weka.attributeSelection.BestFirst -D 1 -N 5\" -W weka.classifiers.trees.J48 -batch-size 20 -- -C 0.25 -M 2 -batch-size 20',-1151805453487947577,20191010.1001,180,20,10,10,0,50,50,0,-0.030928,0.506005,0.578354,102.211953,116.253393,19.855507,27.210223,-7.354716,0.992775,1.360511,-0.367736,-0.490049,-0.024502,-2.468074,0.333333,3,0.363636,4,0.636364,7,0.666667,6,0.428571,0.333333,0.375,-0.031607,0.525253,0.516583,0.5,0.530303,0.469697,0.5,0.489011,0.5,0.489583,-0.031607,0.525253,0.558348,0.479167,0.5,1.634,0,1.63,0,1630,0,69396,135686,67046,100,97.5,?,4,1634,1634,17,12,12,?,?,?
write.to.file,10,2,weka.classifiers.meta.AttributeSelectedClassifier,'-E \"weka.attributeSelection.WrapperSubsetEval -B weka.classifiers.trees.J48 -F 5 -T 0.01 -R 1 -E DEFAULT -- -C 0.25 -M 2\" -S \"weka.attributeSelection.BestFirst -D 1 -N 5\" -W weka.classifiers.trees.J48 -batch-size 20 -- -C 0.25 -M 2 -batch-size 20',-1151805453487947577,20191010.1001,180,20,10,10,0,50,50,0,-0.010101,0.479167,0.506399,96.790603,101.789951,19.855507,20.131206,-0.2757,0.992775,1.00656,-0.013785,0.491303,0.024565,2.474394,0.444444,4,0.454545,5,0.545455,6,0.555556,5,0.444444,0.444444,0.444444,-0.010101,0.520202,0.460689,0.5,0.510101,0.489899,0.5,0.5,0.5,0.5,-0.010101,0.520202,0.531174,0.494949,0.5,2.712,0,2.7,0,2700,0,69501,135686,67046,100,97.5,?,5,2712,2712,17,11,11,?,?,?
write.to.file,10,3,weka.classifiers.meta.AttributeSelectedClassifier,'-E \"weka.attributeSelection.WrapperSubsetEval -B weka.classifiers.trees.J48 -F 5 -T 0.01 -R 1 -E DEFAULT -- -C 0.25 -M 2\" -S \"weka.attributeSelection.BestFirst -D 1 -N 5\" -W weka.classifiers.trees.J48 -batch-size 20 -- -C 0.25 -M 2 -batch-size 20',-1151805453487947577,20191010.1001,180,20,9,11,0,45,55,0,-0.1,0.530473,0.561317,107.15442,112.828848,19.855507,1094.696564,-1074.841058,0.992775,54.734828,-53.742053,-1.588603,-0.07943,-8.00082,0.444444,4,0.545455,6,0.454545,5,0.555556,5,0.4,0.444444,0.421053,-0.100504,0.40404,0.400794,0.45,0.55101,0.44899,0.55,0.455,0.45,0.451378,-0.100504,0.40404,0.464436,0.448622,0.45,2.29,0,2.28,0.01,2280,10,68427,135686,67046,95,97.5,?,5,2290,2290,11,7,7,?,?,?
write.to.file,10,4,weka.classifiers.meta.AttributeSelectedClassifier,'-E \"weka.attributeSelection.WrapperSubsetEval -B weka.classifiers.trees.J48 -F 5 -T 0.01 -R 1 -E DEFAULT -- -C 0.25 -M 2\" -S \"weka.attributeSelection.BestFirst -D 1 -N 5\" -W weka.classifiers.trees.J48 -batch-size 20 -- -C 0.25 -M 2 -batch-size 20',-1151805453487947577,20191010.1001,180,20,7,13,0,35,65,0,-0.326531,0.554381,0.605667,111.983632,121.743536,19.855507,2168.457699,-2148.602192,0.992775,108.422885,-107.43011,-2.824888,-0.141244,-14.227225,0.222222,2,0.545455,6,0.454545,5,0.777778,7,0.25,0.222222,0.235294,-0.328244,0.343434,0.38623,0.35,0.673232,0.326768,0.65,0.341667,0.35,0.345013,-0.328244,0.343434,0.442781,0.335038,0.35,1.061,0,1.06,0,1060,0,70981,135686,67046,90,92.5,?,3,1061,1061,27,24,24,?,?,?
write.to.file,10,5,weka.classifiers.meta.AttributeSelectedClassifier,'-E \"weka.attributeSelection.WrapperSubsetEval -B weka.classifiers.trees.J48 -F 5 -T 0.01 -R 1 -E DEFAULT -- -C 0.25 -M 2\" -S \"weka.attributeSelection.BestFirst -D 1 -N 5\" -W weka.classifiers.trees.J48 -batch-size 20 -- -C 0.25 -M 2 -batch-size 20',-1151805453487947577,20191010.1001,180,20,10,10,0,50,50,0,-0.052632,0.522227,0.602634,105.488657,121.133889,19.855507,2169.666651,-2149.811144,0.992775,108.483333,-107.490557,-0.870251,-0.043513,-4.382921,0.222222,2,0.272727,3,0.727273,8,0.777778,7,0.4,0.222222,0.285714,-0.058026,0.343434,0.425281,0.5,0.550505,0.449495,0.5,0.473333,0.5,0.467033,-0.058026,0.343434,0.458533,0.450549,0.5,3.162,0,3.15,0,3150,0,75883,135686,67046,90,95,?,5,3161,3162,53,36,36,?,?,?
write.to.file,10,6,weka.classifiers.meta.AttributeSelectedClassifier,'-E \"weka.attributeSelection.WrapperSubsetEval -B weka.classifiers.trees.J48 -F 5 -T 0.01 -R 1 -E DEFAULT -- -C 0.25 -M 2\" -S \"weka.attributeSelection.BestFirst -D 1 -N 5\" -W weka.classifiers.trees.J48 -batch-size 20 -- -C 0.25 -M 2 -batch-size 20',-1151805453487947577,20191010.1001,180,20,11,9,0,55,45,0,0.0625,0.485789,0.530788,98.128395,106.692372,19.855507,1092.431364,-1072.575857,0.992775,54.621568,-53.628793,0.443424,0.022171,2.233252,0.333333,3,0.272727,3,0.727273,8,0.666667,6,0.5,0.333333,0.4,0.065795,0.520202,0.478105,0.55,0.489394,0.510606,0.45,0.539286,0.55,0.532,0.065795,0.520202,0.519167,0.52,0.55,4.234,0,4.23,0,4230,0,70391,135686,67046,95,95,?,7,4233,4234,21,12,12,?,?,?
write.to.file,10,7,weka.classifiers.meta.AttributeSelectedClassifier,'-E \"weka.attributeSelection.WrapperSubsetEval -B weka.classifiers.trees.J48 -F 5 -T 0.01 -R 1 -E DEFAULT -- -C 0.25 -M 2\" -S \"weka.attributeSelection.BestFirst -D 1 -N 5\" -W weka.classifiers.trees.J48 -batch-size 20 -- -C 0.25 -M 2 -batch-size 20',-1151805453487947577,20191010.1001,180,20,11,9,0,55,45,0,0.117647,0.48004,0.498396,96.966972,100.181333,19.855507,19.932394,-0.076888,0.992775,0.99662,-0.003844,0.696933,0.034847,3.510025,0.666667,6,0.545455,6,0.454545,5,0.333333,3,0.5,0.666667,0.571429,0.123091,0.545455,0.483333,0.55,0.428788,0.571212,0.45,0.56875,0.55,0.546617,0.123091,0.545455,0.528036,0.548872,0.55,1.119,0,1.11,0,1110,0,67128,135686,67046,100,100,?,2,1119,1119,5,3,3,?,?,?
write.to.file,10,8,weka.classifiers.meta.AttributeSelectedClassifier,'-E \"weka.attributeSelection.WrapperSubsetEval -B weka.classifiers.trees.J48 -F 5 -T 0.01 -R 1 -E DEFAULT -- -C 0.25 -M 2\" -S \"weka.attributeSelection.BestFirst -D 1 -N 5\" -W weka.classifiers.trees.J48 -batch-size 20 -- -C 0.25 -M 2 -batch-size 20',-1151805453487947577,20191010.1001,180,20,8,12,0,40,60,0,-0.188119,0.533932,0.565505,107.852978,113.670637,19.855507,24.471442,-4.615935,0.992775,1.223572,-0.230797,-1.956288,-0.097814,-9.85262,0.444444,4,0.636364,7,0.363636,4,0.555556,5,0.363636,0.444444,0.4,-0.191919,0.378788,0.404351,0.4,0.591919,0.408081,0.6,0.408081,0.4,0.4,-0.191919,0.378788,0.453861,0.4,0.4,1.246,0,1.24,0,1240,0,68275,135686,67046,100,100,?,3,1246,1246,11,7,7,?,?,?
write.to.file,10,9,weka.classifiers.meta.AttributeSelectedClassifier,'-E \"weka.attributeSelection.WrapperSubsetEval -B weka.classifiers.trees.J48 -F 5 -T 0.01 -R 1 -E DEFAULT -- -C 0.25 -M 2\" -S \"weka.attributeSelection.BestFirst -D 1 -N 5\" -W weka.classifiers.trees.J48 -batch-size 20 -- -C 0.25 -M 2 -batch-size 20',-1151805453487947577,20191010.1001,180,20,16,4,0,80,20,0,0.587629,0.324697,0.367038,65.588067,73.777417,19.855507,12.523182,7.332325,0.992775,0.626159,0.366616,7.792361,0.389618,39.245341,0.666667,6,0.090909,1,0.909091,10,0.333333,3,0.857143,0.666667,0.75,0.600533,0.90404,0.892718,0.8,0.224242,0.775758,0.2,0.808791,0.8,0.795833,0.600533,0.90404,0.892602,0.791667,0.8,3.18,0,3.17,0,3170,0,73835,135686,67046,100,97.5,?,7,3180,3180,41,31,31,?,?,?
write.to.file,10,10,weka.classifiers.meta.AttributeSelectedClassifier,'-E \"weka.attributeSelection.WrapperSubsetEval -B weka.classifiers.trees.J48 -F 5 -T 0.01 -R 1 -E DEFAULT -- -C 0.25 -M 2\" -S \"weka.attributeSelection.BestFirst -D 1 -N 5\" -W weka.classifiers.trees.J48 -batch-size 20 -- -C 0.25 -M 2 -batch-size 20',-1151805453487947577,20191010.1001,180,20,11,9,0,55,45,0,0,0.495,0.497494,99.988901,99.999939,19.855507,19.855489,0.000018,0.992775,0.992774,0.000001,0.002884,0.000144,0.014525,0,0,0,0,1,11,1,9,?,0,?,?,0.5,0.45,0.55,0.55,0.45,0.45,?,0.55,?,?,0.5,0.505,?,0.55,0.263,0,0.26,0,260,0,66011,135686,67046,100,100,?,0,263,263,1,1,1,?,?,?
write.to.file,1,1,weka.classifiers.meta.AttributeSelectedClassifier,'-E \"weka.attributeSelection.WrapperSubsetEval -B weka.classifiers.trees.RandomForest -F 5 -T 0.01 -R 1 -E DEFAULT -- -P 100 -I 100 -num-slots 1 -K 0 -M 1.0 -V 0.001 -S 1\" -S \"weka.attributeSelection.BestFirst -D 1 -N 5\" -W weka.classifiers.trees.RandomForest -- -P 100 -I 100 -num-slots 1 -K 0 -M 1.0 -V 0.001 -S 1',-1151805453487947577,20191010.1005,180,20,10,10,0,50,50,0,0.029126,0.468115,0.56017,94.558223,112.598384,19.855507,27.753792,-7.898285,0.992775,1.38769,-0.394914,0.905381,0.045269,4.559851,0.666667,6,0.636364,7,0.363636,4,0.333333,3,0.461538,0.666667,0.545455,0.031607,0.565657,0.563678,0.5,0.469697,0.530303,0.5,0.521978,0.5,0.489899,0.031607,0.565657,0.612625,0.494949,0.5,241.751,0.001,238.62,0,238620,0,851852,135686,67046,90,90,?,8,241727,241750,?,?,?,-1,?,?
write.to.file,1,2,weka.classifiers.meta.AttributeSelectedClassifier,'-E \"weka.attributeSelection.WrapperSubsetEval -B weka.classifiers.trees.RandomForest -F 5 -T 0.01 -R 1 -E DEFAULT -- -P 100 -I 100 -num-slots 1 -K 0 -M 1.0 -V 0.001 -S 1\" -S \"weka.attributeSelection.BestFirst -D 1 -N 5\" -W weka.classifiers.trees.RandomForest -- -P 100 -I 100 -num-slots 1 -K 0 -M 1.0 -V 0.001 -S 1',-1151805453487947577,20191010.1008,180,20,10,10,0,50,50,0,-0.030928,0.486154,0.56598,98.202003,113.766235,19.855507,26.046483,-6.190977,0.992775,1.302324,-0.309549,0.076735,0.003837,0.386465,0.333333,3,0.363636,4,0.636364,7,0.666667,6,0.428571,0.333333,0.375,-0.031607,0.515152,0.566152,0.5,0.530303,0.469697,0.5,0.489011,0.5,0.489583,-0.031607,0.515152,0.582603,0.479167,0.5,187.824,0,185.64,0,185640,0,609441,135686,67046,95,92.5,?,6,187807,187824,?,?,?,-1,?,?
write.to.file,1,3,weka.classifiers.meta.AttributeSelectedClassifier,'-E \"weka.attributeSelection.WrapperSubsetEval -B weka.classifiers.trees.RandomForest -F 5 -T 0.01 -R 1 -E DEFAULT -- -P 100 -I 100 -num-slots 1 -K 0 -M 1.0 -V 0.001 -S 1\" -S \"weka.attributeSelection.BestFirst -D 1 -N 5\" -W weka.classifiers.trees.RandomForest -- -P 100 -I 100 -num-slots 1 -K 0 -M 1.0 -V 0.001 -S 1',-1151805453487947577,20191010.1011,180,20,12,8,0,60,40,0,0.157895,0.479185,0.530682,96.794324,106.671078,19.855507,24.61044,-4.754933,0.992775,1.230522,-0.237747,0.87587,0.043793,4.411219,0.333333,3,0.181818,2,0.818182,9,0.666667,6,0.6,0.333333,0.428571,0.174078,0.515152,0.633276,0.6,0.448485,0.551515,0.4,0.6,0.6,0.573626,0.174078,0.515152,0.603156,0.56044,0.6,148.998,0.003,146.98,0.01,146980,10,365875,135686,67046,95,95,?,6,148985,148998,?,?,?,-1,?,?
write.to.file,1,4,weka.classifiers.meta.AttributeSelectedClassifier,'-E \"weka.attributeSelection.WrapperSubsetEval -B weka.classifiers.trees.RandomForest -F 5 -T 0.01 -R 1 -E DEFAULT -- -P 100 -I 100 -num-slots 1 -K 0 -M 1.0 -V 0.001 -S 1\" -S \"weka.attributeSelection.BestFirst -D 1 -N 5\" -W weka.classifiers.trees.RandomForest -- -P 100 -I 100 -num-slots 1 -K 0 -M 1.0 -V 0.001 -S 1',-1151805453487947577,20191010.1014,180,20,8,12,0,40,60,0,-0.237113,0.526004,0.597078,106.251553,120.017071,19.855507,30.031404,-10.175897,0.992775,1.50157,-0.508795,-1.600994,-0.08005,-8.063223,0.222222,2,0.454545,5,0.545455,6,0.777778,7,0.285714,0.222222,0.25,-0.24232,0.419192,0.411847,0.4,0.632323,0.367677,0.6,0.382418,0.4,0.3875,-0.24232,0.419192,0.501223,0.375,0.4,172.197,0,169.9,0,169900,0,554612,135686,67046,90,87.5,?,6,172181,172197,?,?,?,-1,?,?
write.to.file,1,5,weka.classifiers.meta.AttributeSelectedClassifier,'-E \"weka.attributeSelection.WrapperSubsetEval -B weka.classifiers.trees.RandomForest -F 5 -T 0.01 -R 1 -E DEFAULT -- -P 100 -I 100 -num-slots 1 -K 0 -M 1.0 -V 0.001 -S 1\" -S \"weka.attributeSelection.BestFirst -D 1 -N 5\" -W weka.classifiers.trees.RandomForest -- -P 100 -I 100 -num-slots 1 -K 0 -M 1.0 -V 0.001 -S 1',-1151805453487947577,20191010.1016,180,20,11,9,0,55,45,0,0.0625,0.473172,0.535979,95.579695,107.735702,19.855507,23.625531,-3.770024,0.992775,1.181277,-0.188501,1.013668,0.050683,5.105224,0.333333,3,0.272727,3,0.727273,8,0.666667,6,0.5,0.333333,0.4,0.065795,0.611111,0.568396,0.55,0.489394,0.510606,0.45,0.539286,0.55,0.532,0.065795,0.611111,0.626474,0.52,0.55,147.604,0,145.33,0,145330,0,476625,135686,67046,100,100,?,5,147587,147604,?,?,?,-1,?,?
write.to.file,1,6,weka.classifiers.meta.AttributeSelectedClassifier,'-E \"weka.attributeSelection.WrapperSubsetEval -B weka.classifiers.trees.RandomForest -F 5 -T 0.01 -R 1 -E DEFAULT -- -P 100 -I 100 -num-slots 1 -K 0 -M 1.0 -V 0.001 -S 1\" -S \"weka.attributeSelection.BestFirst -D 1 -N 5\" -W weka.classifiers.trees.RandomForest -- -P 100 -I 100 -num-slots 1 -K 0 -M 1.0 -V 0.001 -S 1',-1151805453487947577,20191010.1019,180,20,11,9,0,55,45,0,0.081633,0.520052,0.576251,105.049291,115.830792,19.855507,26.902794,-7.047288,0.992775,1.34514,-0.352364,-0.997123,-0.049856,-5.021895,0.444444,4,0.363636,4,0.636364,7,0.555556,5,0.5,0.444444,0.470588,0.082061,0.424242,0.443064,0.55,0.469192,0.530808,0.45,0.545833,0.55,0.546547,0.082061,0.424242,0.515105,0.539642,0.55,149.581,0.001,146.95,0,146950,0,395460,135686,67046,100,97.5,?,4,149565,149581,?,?,?,-1,?,?
write.to.file,1,7,weka.classifiers.meta.AttributeSelectedClassifier,'-E \"weka.attributeSelection.WrapperSubsetEval -B weka.classifiers.trees.RandomForest -F 5 -T 0.01 -R 1 -E DEFAULT -- -P 100 -I 100 -num-slots 1 -K 0 -M 1.0 -V 0.001 -S 1\" -S \"weka.attributeSelection.BestFirst -D 1 -N 5\" -W weka.classifiers.trees.RandomForest -- -P 100 -I 100 -num-slots 1 -K 0 -M 1.0 -V 0.001 -S 1',-1151805453487947577,20191010.1023,180,20,8,12,0,40,60,0,-0.237113,0.480008,0.566247,96.960462,113.819772,19.855507,27.131246,-7.27574,0.992775,1.356562,-0.363787,-0.046372,-0.002319,-0.233548,0.222222,2,0.454545,5,0.545455,6,0.777778,7,0.285714,0.222222,0.25,-0.24232,0.494949,0.587389,0.4,0.632323,0.367677,0.6,0.382418,0.4,0.3875,-0.24232,0.494949,0.603675,0.375,0.4,271.175,0.001,268.4,0,268400,0,551789,135686,67046,95,87.5,?,10,271159,271175,?,?,?,-1,?,?
write.to.file,1,8,weka.classifiers.meta.AttributeSelectedClassifier,'-E \"weka.attributeSelection.WrapperSubsetEval -B weka.classifiers.trees.RandomForest -F 5 -T 0.01 -R 1 -E DEFAULT -- -P 100 -I 100 -num-slots 1 -K 0 -M 1.0 -V 0.001 -S 1\" -S \"weka.attributeSelection.BestFirst -D 1 -N 5\" -W weka.classifiers.trees.RandomForest -- -P 100 -I 100 -num-slots 1 -K 0 -M 1.0 -V 0.001 -S 1',-1151805453487947577,20191010.1027,180,20,11,9,0,55,45,0,0.081633,0.452663,0.528644,91.436928,106.26144,19.855507,22.329605,-2.474099,0.992775,1.11648,-0.123705,1.770584,0.088529,8.917344,0.444444,4,0.363636,4,0.636364,7,0.555556,5,0.5,0.444444,0.470588,0.082061,0.570707,0.552785,0.55,0.469192,0.530808,0.45,0.545833,0.55,0.546547,0.082061,0.570707,0.620315,0.539642,0.55,214.14,0.001,211.51,0.01,211510,10,737905,135686,67046,100,95,?,8,214122,214140,?,?,?,-1,?,?
write.to.file,1,9,weka.classifiers.meta.AttributeSelectedClassifier,'-E \"weka.attributeSelection.WrapperSubsetEval -B weka.classifiers.trees.RandomForest -F 5 -T 0.01 -R 1 -E DEFAULT -- -P 100 -I 100 -num-slots 1 -K 0 -M 1.0 -V 0.001 -S 1\" -S \"weka.attributeSelection.BestFirst -D 1 -N 5\" -W weka.classifiers.trees.RandomForest -- -P 100 -I 100 -num-slots 1 -K 0 -M 1.0 -V 0.001 -S 1',-1151805453487947577,20191010.1029,180,20,9,11,0,45,55,0,-0.145833,0.530387,0.577522,107.136907,116.086235,19.855507,25.963271,-6.107764,0.992775,1.298164,-0.305388,-1.643483,-0.082174,-8.277217,0.222222,2,0.363636,4,0.636364,7,0.777778,7,0.333333,0.222222,0.266667,-0.153522,0.429293,0.413467,0.45,0.591414,0.408586,0.55,0.425,0.45,0.428,-0.153522,0.429293,0.49478,0.413333,0.45,150.323,0,148.2,0,148200,0,488164,135686,67046,100,100,?,5,150308,150323,?,?,?,-1,?,?
write.to.file,1,10,weka.classifiers.meta.AttributeSelectedClassifier,'-E \"weka.attributeSelection.WrapperSubsetEval -B weka.classifiers.trees.RandomForest -F 5 -T 0.01 -R 1 -E DEFAULT -- -P 100 -I 100 -num-slots 1 -K 0 -M 1.0 -V 0.001 -S 1\" -S \"weka.attributeSelection.BestFirst -D 1 -N 5\" -W weka.classifiers.trees.RandomForest -- -P 100 -I 100 -num-slots 1 -K 0 -M 1.0 -V 0.001 -S 1',-1151805453487947577,20191010.1032,180,20,11,9,0,55,45,0,0.081633,0.480453,0.524359,97.050339,105.399967,19.855507,21.692349,-1.836842,0.992775,1.084617,-0.091842,0.481651,0.024083,2.425782,0.444444,4,0.363636,4,0.636364,7,0.555556,5,0.5,0.444444,0.470588,0.082061,0.520202,0.479496,0.55,0.469192,0.530808,0.45,0.545833,0.55,0.546547,0.082061,0.520202,0.569584,0.539642,0.55,139.377,0.001,136.83,0,136830,0,491471,135686,67046,100,95,?,4,139363,139376,?,?,?,-1,?,?
